%YAML 1.1
%TAG !u! tag:unity3d.com,2011:
--- !u!114 &11400000
MonoBehaviour:
  m_ObjectHideFlags: 0
  m_CorrespondingSourceObject: {fileID: 0}
  m_PrefabInternal: {fileID: 0}
  m_GameObject: {fileID: 0}
  m_Enabled: 1
  m_EditorHideFlags: 0
  m_Script: {fileID: 11500000, guid: 43e5d70c18df4c0499fea887d31b1ebd, type: 3}
  m_Name: GlobalSettings
  m_EditorClassIdentifier: 
  GPSettings:
    BaseTraderBuyMultiplier: 0.5
    Coeficents:
    - Type: 0
      WeaponCostMultiplier: 50
      WeaponCostProgressPov: 1
    - Type: 1
      WeaponCostMultiplier: 50
      WeaponCostProgressPov: 1
    - Type: 2
      WeaponCostMultiplier: 50
      WeaponCostProgressPov: 1
    - Type: 3
      WeaponCostMultiplier: 50
      WeaponCostProgressPov: 1
    - Type: 4
      WeaponCostMultiplier: 50
      WeaponCostProgressPov: 1
    RewardedAdPrice: 100
    ArrowsCost: 5
    BoltsCost: 20
    CriticalAttackChance: 0.05
    CriticalAttackMultiplier: 2
    DelayOnMissChance: 0.9
    DelayOnMiss: 1
  Graphics:
    BloodTextures:
    - {fileID: 2800000, guid: 3b7fc9565bbbaa040a0df85adaf12b2d, type: 3}
    - {fileID: 2800000, guid: eed6eabcadd7b754e89b28c783ef64bf, type: 3}
