%YAML 1.1
%TAG !u! tag:unity3d.com,2011:
--- !u!114 &11400000
MonoBehaviour:
  m_ObjectHideFlags: 0
  m_CorrespondingSourceObject: {fileID: 0}
  m_PrefabInstance: {fileID: 0}
  m_PrefabAsset: {fileID: 0}
  m_GameObject: {fileID: 0}
  m_Enabled: 1
  m_EditorHideFlags: 0
  m_Script: {fileID: 11500000, guid: 3f1ca63a91b17724bbd99c8fa67e0180, type: 3}
  m_Name: Default Material Palette
  m_EditorClassIdentifier: 
  array:
  - {fileID: 2100000, guid: c3644d2b812b79d4b9b28c93a396352e, type: 2}
  - {fileID: 2100000, guid: ce9ed87a3c838ee4ab97d5e97d001bb2, type: 2}
  - {fileID: 2100000, guid: b921f5e46d0b20742a5db300edfaa10e, type: 2}
  - {fileID: 2100000, guid: d3d894a264b4e244fa3fb97cf563766f, type: 2}
  - {fileID: 2100000, guid: 4063408518f888c4bb67d275c38df6ca, type: 2}
  - {fileID: 2100000, guid: 5405402b21436c84882975a460d69ea5, type: 2}
  - {fileID: 0}
  - {fileID: 0}
  - {fileID: 0}
  - {fileID: 0}
