%YAML 1.1
%TAG !u! tag:unity3d.com,2011:
--- !u!21 &2100000
Material:
  serializedVersion: 6
  m_ObjectHideFlags: 0
  m_PrefabParentObject: {fileID: 0}
  m_PrefabInternal: {fileID: 0}
  m_Name: weapons
  m_Shader: {fileID: 10703, guid: 0000000000000000f000000000000000, type: 0}
  m_ShaderKeywords: 
  m_LightmapFlags: 4
  m_EnableInstancingVariants: 0
  m_DoubleSidedGI: 0
  m_CustomRenderQueue: -1
  stringTagMap: {}
  disabledShaderPasses: []
  m_SavedProperties:
    serializedVersion: 3
    m_TexEnvs:
    - _EffectTex:
        m_Texture: {fileID: 2800000, guid: caabdaa97cc8d384bb4edb690d4d46fe, type: 3}
        m_Scale: {x: 1, y: 1}
        m_Offset: {x: 0, y: 0}
    - _MainTex:
        m_Texture: {fileID: 2800000, guid: 80ebd480029be9d4daefc9093b35f4bc, type: 3}
        m_Scale: {x: 1, y: 1}
        m_Offset: {x: 0, y: 0}
    m_Floats:
    - _Shininess: 1.0879757
    - _SpecPower: 2.6103637
    m_Colors:
    - _Color: {r: 1, g: 1, b: 1, a: 1}
    - _SpecColor: {r: 1, g: 1, b: 1, a: 0}
--- !u!1002 &2100001
EditorExtensionImpl:
  serializedVersion: 6
