Key	Type	Desc	English	Russian	French	Polish	German	Spanish	Portuguese	Chinese	Japanese	Hindi	Arabic
App_Name	Text		Barbarian	Варвар	barbare	barbarzyńca	Barbar	bárbaro	bárbaro	野蛮人	野蛮人	जंगली	بربري
Arrows	Text		Arrows	Стрелы	booms	wysięgniki	Boom	Plumas	booms	围油栏	ブーム	बूम्स	ازدهار
Attributes	Text		Attributes	Атрибуты	attributs	atrybuty	Attribute	atributos	atributos	属性	属性	गुण	سمات
Axe	Text		Axe	Топор	hache	siekiera	Axt	hacha	machado	斧	斧	कुल्हाड़ी	الفأس
BastardOneHand	Text		Bastard's sword	Меч бастарда	épée bâtarde	drań miecz	Bastardschwert	espada bastarda	espada bastarda	重剑	バスタードソード	कमीने तलवार	السيف نذل
Bed	Text		Bed	Кровать	lit	łóżko	Bett	cama	cama	床	ベッド	बिस्तर	قاع
BestSword	Text		Gold assassin	Золотой убийца	tueur d'or	Złoty zabójca	Goldener Killer	asesino de oro	assassino de ouro	黄金杀手	ゴールデンキラー	गोल्डन हत्यारा	القاتل الذهبي
BiutySword	Text		Magnificent sword	Великолепный меч	magnifique épée	wspaniały miecz	prächtiges Schwert	magnífica espada	magnífica espada	华丽的剑	壮大な剣	शानदार तलवार	السيف الرائع
Bolts	Text		Bolts	Болты	boulons	śruby	Bolzen	pernos	parafusos	螺栓	ボルト	बोल्ट	البراغي
CLEAR PROGRESS	Text		CLEAR PROGRESS	УДАЛИТЬ СОХРАНЕНИЯ	supprimer sauvé	Usuń zapisane	löschen gespeichert	eliminar salvado	excluir salvos	删除保存	削除保存	हटाएँ बचाया	حذف المحفوظة
Cancel	Text		Cancel	Отмена	annulation	anulowanie	Stornierung	cancelación	cancelamento	消除	取り消し	रद्द करना	إلغاء
Character	Text		Character	Персонаж	caractère	charakter	Zeichen	carácter	caráter	人物	文字	चरित्र	شخصية
Chest	Text		Chest	Сундук	poitrine	pierś	Brust	pecho	peito	胸部	チェスト	छाती	صدر
Continue Game	Text		Continue Game	Продолжить Игру	jeu continuer	kontynuować grę	weiter Spiel	Juego continuar	continuar Jogo	继续游戏	ゲームを続けます	जारी रखने के लिए खेल	مواصلة لعبة
Dexterity	Text		Dexterity	Ловкость	dextérité	zręczność	Geschicklichkeit	destreza	destreza	灵巧	熟練	निपुणता	براعة
DirtySword	Text		Rusty sword	Ржавый меч	épée rouillée	zardzewiały miecz	rostiges Schwert	espada oxidada	espada enferrujada	一把生锈的剑	さびた剣	जंग लगी तलवार	سيف صدئ
Dubinka	Text		Baton	Дубинка	matraque	buława	Schlagstock	cachiporra	cassetete	警棍	十手	छड़ी	هراوة
DubinkaGvozdi	Text		Club with nails	Дубина с гвоздями	ongles Dubina	paznokcie Dubina	Dubina Nägel	clavos Dubina	unhas Dubina	Dubina指甲	Dubina釘	Dubina नाखून	الأظافر Dubina
ExpPoints	Text		ExpPoints	Очки Опыта	Points d'expérience	Punkty doświadczenia	Erfahrungspunkte	Puntos de experiencia	Pontos de experiência	经验值	経験ポイント	अनुभव अंक	نقاط الخبرة
Expirence	Text		Exp	Опыт	expérience	doświadczenie	Erfahrung	experiencia	experiência	经验	経験	अनुभव	تجربة
Game Saved	Text		Game Saved...	Игра Сохранена...	Enregistrer Game ...	Gra Zapisz ...	Spiel speichern ...	Guardar juego ...	Jogo Gravar ...	游戏保存...	ゲームの保存...	खेल सहेजें ...	لعبة حفظ ...
Gold	Text		Gold	Золото	or	złoto	Gold	oro	ouro	黄金	ゴールド	सोना	الذهب
Grains	Text		Grains	Зерно	grain	ziarno	Getreide	grano	grão	粮食	穀物	अनाज	حبوب
Health	Text		Health	Здоровье	santé	zdrowie	Gesundheit	salud	saúde	健康	健康	स्वास्थ्य	الصحة
Hunger	Text		Hunger	Голод	faim	głód	Hunger	hambre	fome	饥饿	飢餓	भूख	جوع
Inventory	Text		Inventory	Инвентарь	inventaire	inwentarz	Inventar	inventario	inventário	盘点	在庫	सूची	جرد
Jurnal	Text		Jurnal	Журнал	magazine	magazyn	Magazin	revista	revista	杂志	雑誌	पत्रिका	مجلة
Level	Text		Level	Уровень	niveau	poziom	Ebene	nivel	nível	水平	レベル	स्तर	مستوى
Level Up	Text		Level Up	Новый Уровень	niveau	nowy poziom	neue Ebene	nuevo nivel	novo nível	新的水平	新しいレベル	नए स्तर	مستوى جديد
LogEntry	Text		New Log Entry	Новая запись в журнале	Nouvelle entrée de journal	Nowy wpis w dzienniku	Neuer Protokolleintrag	Nueva entrada del registro	entrada de log novo	新的日志条目	新しいログエントリ	न्यू लॉग प्रविष्टि	إدخال سجل جديد
Loading	Text		Loading...	Загрузка...	Chargement en cours ...	Ładowanie ...	Wird geladen ...	Cargando ...	Carregando ...	载入中...	読み込んでいます...	लोड हो रहा है ...	تحميل ...
Meat	Text		Meat	Мясо	viande	mięso	Fleisch	carne	carne	肉	肉	मांस	لحم
MorgenStern	Text		Morgenstern	Моргенштерн	Morgenstern	Morgenstern	Morgenstern	Morgenstern	Morgenstern	摩根斯坦	モルゲンシュテルン	मॉर्गनस्टर्न	مورجينسترن
Mushroom	Text		Mushroom	Гриб	champignon	grzyb	Pilz	seta	cogumelo	蘑菇	キノコ	कुकुरमुत्ता	فطر
OldSword	Text		Old sword	Старый меч	épée vieux	stary miecz	altes Schwert	espada de edad	velha espada	老剑	古刀	पुरानी तलवार	قديم السيف
Ring of Strength	Text		Ring of Strength	Кольцо Силы	Anneau de Pouvoir	Pierścień Mocy	Ring of Power	Anillo de Poder	Anel do Poder	电源的环	パワーのリング	पावर की अंगूठी	عصابة من الطاقة
Save Exit	Text		Save & Exit	Сохранить и выйти	Enregistrer et Quitter	Zapisz i Wyjdź	Speichern und Beenden	Guardar y Salir	Save and Exit	保存并退出	保存して終了	सहेजें और बाहर निकलें	حفظ وخروج
Sekira	Text		Axe	Секира	hache	siekiera	Axt	hacha	machado	斧	斧	कुल्हाड़ी	الفأس
SekiraOneHand	Text		Axe	Секира	hache	siekiera	Axt	hacha	machado	斧	斧	कुल्हाड़ी	الفأس
Start New Game	Text		New Game	Новая Игра	nouveau jeu	nowa gra	neues Spiel	nuevo Juego	novo jogo	新游戏	新しいゲーム	नया खेल	لعبة جديدة
Strength	Text		Strength	Сила	puissance	moc	Macht	poder	poder	动力	パワー	शक्ति	قوة
You died	Text		you died	ты умер	vous mouriez	umarłeś	Sie starb	moriste	você morreu	你死了	あなたは死にました	आप की मृत्यु हो गई	هل مات
adFailed	Text		unable to show ads. there may not be an Internet connection	нет доступной рекламы. возможно нет сети	Pas de publicité disponible. peut-être il n'y a pas de réseau	Brak reklamy. Być może nie ma sieci	Keine Werbung zur Verfügung. vielleicht gibt es kein Netz	Sin publicidad disponible. tal vez no existe una red	Nenhuma publicidade disponível. talvez não há rede	没有可用的广告。也许没有网络	利用できません広告。おそらく、何のネットワークがありません	कोई विज्ञापन उपलब्ध। शायद कोई नेटवर्क है	لا الإعلان المتاحة. ربما لا يوجد شبكة
armorCivil	Text		Peasant clothes	Одежда крестьянина	Vêtements paysan	chłop Odzież	Bauer Kleidung	Ropa campesino	Roupa camponês	农民服装	農民の服	किसान कपड़े	الملابس الفلاحين
armorGlad	Text		Gladiator armor	Доспехи гладиатора	armure Gladiator	Armor Gladiator	Rüstung Gladiator	armadura Gladiador	armadura Gladiator	装甲角斗士	アーマーグラディエーター	कवच ग्लेडिएटर	درع مصارعا
armorHavy	Text		Heavy armor	Тяжелая броня	armure lourde	ciężki pancerz	schwere Rüstung	armadura pesada	armadura pesada	重甲	重い鎧	भारी कवच	الدروع الثقيلة
arrows	Text		Arrows	Стрелы	booms	wysięgniki	Boom	Plumas	booms	围油栏	ブーム	बूम्स	ازدهار
askToLearning	Text		Learning	Обучаться	train	pociąg	Zug	tren	trem	火车	列車	गाड़ी	قطار
askToLearningDexterity	Text		Increase Dexterity	Повысить Ловкость	pour augmenter Agilité	zwiększyć Agility	zu erhöhen Beweglichkeit	para aumentar la agilidad	para aumentar a agilidade	增加敏捷	敏捷性を高めるために	चपलता को बढ़ाने के लिए	لزيادة أجيليتي
askToLearningStrength	Text		Increase Strength	Повысить Силу	augmenter la puissance de	zwiększyć moc	erhöhen die Macht	aumentar el poder de	aumentar o poder de	增加的力量	の力を高めます	की शक्ति में वृद्धि	زيادة قوة
attackMeele	Text		Melee Attack	Атака в ближнем бою	Les attaques de mêlée	ataki wręcz	Nahkampfangriffe	ataques cuerpo a cuerpo	ataques corpo a corpo	近战攻击	近接攻撃	हाथापाई हमलों	الهجمات المشاجرة
attackParam	Text		Attack	Атака	attaque	atak	Angriff	ataque	ataque	攻击	攻撃	आक्रमण	هجوم
attackShoot	Text		Ranged Attack	Атака в дальнем бою	attaque à distance	atak wahały	Angriff reichte	ataque a distancia	ataque à distância	远程攻击	攻撃の範囲でした	हमला लेकर	هجوم تراوحت
axe	Text		Barbarian Axe	Варварский Топор	Ax barbare	Ax barbarzyńskie	Ax barbarische	hacha bárbara	machado bárbaro	斧野蛮	野蛮な斧	कुल्हाड़ी बर्बर	الفأس البربري
barbarianShield	Text		Barbarian shield	Варварский щит	bouclier barbare	barbarzyńskie tarcza	barbarisches Schild	escudo bárbara	escudo selvagem	野蛮盾	野蛮なシールド	बर्बर ढाल	درع البربري
battleCrossbow	Text		Battle crossbow	Боевой арбалет	bataille arbalètes	kusza bojowa	Kampf Armbrust	ballesta batalla	besta batalha	战弩	バトルクロスボウ	लड़ाई क्रॉसबो	معركة القوس والنشاب
battleParameters	Text		Battle parameters	Параметры боя	paramètres bataille	parametry bitwa	Parameter Schlacht	parámetros de batalla	parâmetros de batalha	参数战	パラメータの戦い	मापदंडों लड़ाई	معركة المعلمات
bearAnimal	Text		Bear	Медведь	porter	znieść	tragen	soportar	suportar	熊	耐えます	भालू	تحمل
bearBlackAnimal	Text		Black bear	Черный медведь	ours noir	czarny niedźwiedź	Schwarzbär	oso negro	urso preto	黑熊	黒熊	काले भालू	الدب الأسود
blackSmit	Text		Garesk	Гареск	Garesk	Garesk	Garesk	Garesk	Garesk	Garesk	Garesk	Garesk	Garesk
boarAnimal	Text		Boar	Кабан	verrat	dzik	Eber	verraco	javali	公猪	猪	सूअर	خنزير ذكر
boarBlackAnimal	Text		Black boar	Черный кабан	sanglier noir	czarny dzik	schwarz Eber	jabalí negro	javali preto	黑野猪	黒いイノシシ	काला सूअर	الخنزير الأسود
bolts	Text		Bolts	Болты	boulons	śruby	Bolzen	pernos	parafusos	螺栓	ボルト	बोल्ट	البراغي
bow	Text		Barbarian bow	Варварский лук	oignons barbares	barbarzyńskie cebule	barbarische Zwiebeln	cebollas bárbaras	cebolas bárbaros	野蛮葱	野蛮なタマネギ	बर्बर प्याज	البصل الوحشية
busy	Text		Busy	Занято	occupé	zajęty	beschäftigt	ocupado	ocupado	忙	忙しいです	व्यस्त	مشغول
comixStartGame01	Text		A team of six people we went in search of an unknown island called Riva. Our crew was the first to risk their lives for wealth and glory.	Командой из шести человек мы отправились на поиски неизвестного острова под названием Рива. Наш экипаж был первым, кто был готов рискнуть жизнью ради богатства и славы	Une équipe de six personnes, nous sommes allés à la recherche d'une île inconnue, appelée Riva. Notre équipe a été le premier qui était prêt à risquer sa vie pour l'amour des richesses et de la gloire	Zespół sześciu osób, udaliśmy się w poszukiwaniu nieznanej wyspie, zwanej Riva. Nasza załoga był pierwszym, który był gotów zaryzykować swoje życie dla zachowania bogactwa i cześć	Ein Team von sechs Personen, gingen wir auf der Suche nach einer unbekannten Insel, genannt Riva. Unsere Crew war der erste, der bereit war, sein Leben zum Wohle des Reichtums zu riskieren und Ehre	Un equipo de seis personas, que fue en busca de una isla desconocida, llamada Riva. Nuestro equipo fue el primero que estaba dispuesto a arriesgar su vida por causa de las riquezas y el honor	Uma equipe de seis pessoas, fomos em busca de uma ilha desconhecida, chamado Riva. Nossa equipe foi a primeira que estava disposto a arriscar sua vida por causa de riquezas e honra	六人团队，我们去寻找未知的岛屿，被称为里瓦。我们的工作人员是第一谁愿意冒着生命危险为富贵的缘故	6人のチームが、我々はリーヴァと呼ばれる未知の島、の検索で行ってきました。私たちの乗組員は、富と名誉のために自分の命を危険にさらして喜んでいた最初の人でした	छह लोगों के एक दल ने, हम एक अज्ञात द्वीप, रिवा कहा जाता है की तलाश में चला गया। हमारे चालक दल पहले जो धन और सम्मान के लिये अपना जीवन जोखिम के लिए तैयार था	وقام فريق من ستة أشخاص، وذهبنا في البحث عن جزيرة مجهولة، ودعا ريفا. كان أفراد طاقم الطائرة الأول الذي كان على استعداد للمخاطرة بحياته من أجل الغنى والشرف
comixStartGame02	Text		Having sailed more than half of the way we were caught by a strong storm. Three were very weak from overtaken scurvy. The crew demanded to turn back. But I was adamant.	Проплыв больше половины пути нас застал сильнейший шторм. Трое были очень слабы от настигшей цинги. Экипаж требовал повернуть назад. Но я был непреклонен.	Ramé plus de la moitié du chemin, nous avons trouvé la plus forte tempête. Trois d'entre eux étaient très faibles du scorbut dépassé. L'équipage a demandé de revenir en arrière. Mais je suis catégorique.	Wiosłował więcej niż połowę drogi okazało się, że najsilniejsze burzę. Trzy z nich były bardzo słabe z wyprzedziły szkorbutu. Załoga zwróciła się zawrócić. Ale byłem nieugięty.	Gerudert mehr als die Hälfte die Art, wie wir den stärksten Sturm gefunden. Drei von ihnen waren sehr schwach von dem überholt Skorbut. Die Besatzung gebeten zurück zu drehen. Aber ich war unerbittlich.	Remado más de la mitad del camino encontramos la tormenta más fuerte. Tres de ellos eran muy débiles desde el escorbuto superado. La tripulación solicitó a dar marcha atrás. Pero yo era inflexible.	Remou mais da metade do caminho encontramos a tempestade mais forte. Três deles estavam muito fracos do escorbuto ultrapassado. A tripulação pediu para voltar atrás. Mas eu era inflexível.	划过半，我们发现的最强风暴的方式。其中三人来自超越坏血病非常薄弱。船员们要求回头。但我态度坚决。	私たちは最強の嵐を発見した半分以上の道を漕い。それらのうち3つは追い越さ壊血病から非常に弱かったです。乗組員は引き返すよう要求しました。しかし、私は断固としました。	आधे से ज्यादा जिस तरह से हम सबसे मजबूत तूफान पाया नाव। इनमें से तीन को पीछे छोड़ स्कर्वी से बहुत कमजोर थे। चालक दल फिर से चालू करने का अनुरोध किया। लेकिन मैं अटल था।	جذف أكثر من نصف الطريق وجدنا أقوى عاصفة. وكان ثلاثة منهم ضعيف جدا من داء الاسقربوط تجاوزتها. طلب الطاقم الى العودة الى الوراء. لكنني كنت مصرا.
comixStartGame03	Text		I woke up in the hot sun... Turns out I was washed ashore. My head ached and the vague memory of the night crash gripped my heart. What about the team? Where am I?	Я очнулся под палящими лучами солнца... Оказалось, меня выбросило на берег. Голова раскалывалась и смутное воспоминание о ночном крушении сжимало мое сердце. Что с командой? Где я?	Je me suis réveillé sous le soleil brûlant ... me mis à terre. Sa tête lui faisait mal, et un vague souvenir de l'accident de la nuit saigner mon cœur. Qu'est-ce avec l'équipe? Où suis-je?	Obudziłem się w palącym słońcu ... obrócił mnie na brzeg. Jego głowa bolała, a mgliste wspomnienie katastrofy nocnym mojego heartbleed. Co z zespołem? Gdzie jestem?	Ich wachte unter der brennenden Sonne ... drehte mich an Land. Sein Kopf schmerzte, und eine vage Erinnerung an den Absturz der Nacht mein Herz bluten. Was mit dem Team? Wo bin ich?	Desperté bajo un sol abrasador ... me convirtió en tierra. Le dolía la cabeza, y un vago recuerdo de la caída de la noche sangrar mi corazón. Lo que con el equipo? ¿Dónde estoy?	Acordei sob o sol escaldante ... me virou em terra. Sua cabeça doía, e uma vaga lembrança do acidente da noite o meu coração sangrar. O que com a equipe? Onde estou?	我醒来的时候顶着烈日......把我上岸。他头也痛，黑夜我的心脏出血坠毁的模糊的记忆。什么跟队？我在哪里？	私は上陸私を回し...灼熱の太陽の下で目が覚めました。彼の頭は痛いし、夜私の心ブリードのクラッシュの漠然とした回想。チームとは何？ここはどこ？	मैं चिलचिलाती धूप में जाग उठा ... मेरे तट पर कर दिया। उसके सिर बैठ जाता है, और रात मेरे दिल खून बहना की दुर्घटना के एक अस्पष्ट याद। टीम के साथ क्या? मैं कहाँ हूँ?	استيقظت تحت الشمس الحارقة ... التفت لي على الشاطئ. آلم رأسه، وتذكر غامضة من تحطم بلادي الليل هارتبليد. ما مع الفريق؟ أين أنا؟
crasherCrossbow	Text		Destroyer crossbow	Арбалет разрушителя	destroyer arbalète	kusza niszczyciel	Armbrust Zerstörer	destructor de ballesta	destroyer besta	弩驱逐舰	クロスボウ駆逐艦	क्रॉसबो विध्वंसक	المدمرة القوس والنشاب
cuprumShield	Text		Copper shield	Медный щит	de blindage en cuivre	ekran miedziany	Kupferschirm	escudo de cobre	escudo cobre	铜屏蔽	銅シールド	तांबा ढाल	درع النحاس
defence	Text		Defence	Защита	protection	ochrona	Schutz	protección	proteção	保护	保護	सुरक्षा	حماية
defenceMelee	Text		Melee Defense	Защита в ближнем бою	mêlée de protection	wręcz ochrona	Schutzhandgemenge	Protección de cuerpo a cuerpo	corpo a corpo proteção	保护混战	保護乱闘	संरक्षण हाथापाई	المشاجرة حماية
defenceShoot	Text		Ranged Defense	Защита в дальнем бою	protection à distance	Ochrona wahały	Schutz reichte	Protección oscilado	proteção variaram	保护范围	保護の範囲でした	संरक्षण लेकर	حماية تراوحت
exitAction	Text		Exit	Выход	sortie	wyjście	Ausfahrt	salida	saída	出口	エグジット	निकास	خروج
giantSpider_lev1	Text		Giant spider	Гигантский паук	L'araignée géante	Gigant pająka	Die Riesenspinne	La araña gigante	A aranha gigante	巨型蜘蛛	巨大なクモ	विशाल मकड़ी	العنكبوت العملاق
giantSpider_lev2	Text		Giant spider	Гигантский паук	L'araignée géante	Gigant pająka	Die Riesenspinne	La araña gigante	A aranha gigante	巨型蜘蛛	巨大なクモ	विशाल मकड़ी	العنكبوت العملاق
giantSpider_lev3	Text		Giant spider	Гигантский паук	L'araignée géante	Gigant pająka	Die Riesenspinne	La araña gigante	A aranha gigante	巨型蜘蛛	巨大なクモ	विशाल मकड़ी	العنكبوت العملاق
giantSpider_lev4	Text		Giant spider	Гигантский паук	L'araignée géante	Gigant pająka	Die Riesenspinne	La araña gigante	A aranha gigante	巨型蜘蛛	巨大なクモ	विशाल मकड़ी	العنكبوت العملاق
giantSpider_lev5	Text		Giant spider	Гигантский паук	L'araignée géante	Gigant pająka	Die Riesenspinne	La araña gigante	A aranha gigante	巨型蜘蛛	巨大なクモ	विशाल मकड़ी	العنكبوت العملاق
goblin	Text		Goblin	Гоблин	farfadet	chochlik	Kobold	duende	gnomo	小妖精	ゴブリン	भूत	عفريت
golds	Text		Gold	Золото	or	złoto	Gold	oro	ouro	黄金	ゴールド	सोना	الذهب
grubAxe	Text		Rough axe	Грубый топор	hache rugueuse	szorstki ax	grobe Axt	hacha en bruto	machado áspero	粗糙斧	ラフ斧	किसी न किसी कुल्हाड़ी	الفأس الخام
hunger	Text		Hunger	Голод	faim	głód	Hunger	hambre	fome	饥饿	飢餓	भूख	جوع
hunterBow	Text		Hunter's bow	Охотничий лук	arc de chasse	łuk myśliwski	Jagdbogen	arco de caza	arco de caça	猎弓	狩猟用の弓	शिकार धनुष	القوس الصيد
hunterCrossbow	Text		Hunting crossbow	Охотничий арбалет	la chasse à l'arbalète	kusza polowanie	Armbrust Jagd	ballesta de caza	caça besta	弩狩猎	クロスボウ狩猟	क्रॉसबो शिकार	صيد القوس والنشاب
inAppDescription	Text		Purchases are purchased permanently and are not deleted along with the preservation of the game. The effect of shopping can be turned off as desired. Disable unwanted ads.	Покупки приобретаются навсегда и не удаляются вместе с сохранением игры. Эффект покупок можно отключить по желанию. Отключают нежелательную рекламу.	Les achats achetés pour toujours et ne peuvent pas être supprimés, ainsi que la préservation du jeu. Nombre d'effet peut être désactivé si on le souhaite. Désactiver la publicité non désirée.	Zakupy kupił zawsze i nie mogą zostać usunięte wraz z zachowaniem gry. Ilość efekt można wyłączyć w razie potrzeby. Wyłącz niechciane reklamy.	Käufe gekauft für immer und können nicht gelöscht werden, zusammen mit der Erhaltung des Spiels. Anzahl der Wirkung kann ausgeschaltet werden, falls gewünscht. Deaktivieren Sie unerwünschte Werbung.	Las compras compraron para siempre y no se pueden eliminar, junto con la preservación del juego. Número de efecto se puede desactivar si se desea. Desactivar la publicidad no deseada.	Compras comprado para sempre e não pode ser excluído, juntamente com a preservação do jogo. Número de efeito pode ser desligado, se desejar. Desativar publicidade indesejada.	购买永远买，不能被删除，随着游戏的保存一起。的效果号如果需要，可以关断。禁用不需要的广告。	購入は永遠に買って、ゲームの保存と一緒に、削除することはできません。所望であれば、効果の数をオフにすることができます。不要な広告を無効にします。	खरीदारियां हमेशा के लिए खरीदा है और, हटाया नहीं जा सकता खेल के संरक्षण के साथ। प्रभाव की संख्या बंद किया जा सकता अगर वांछित। अवांछित विज्ञापन अक्षम करें।	اشترت مشتريات إلى الأبد ولا يمكن حذفها، جنبا إلى جنب مع الحفاظ على اللعبة. عدد من تأثير يمكن إيقاف إذا رغبت في ذلك. تعطيل الإعلانات غير المرغوب فيها.
ironShield	Text		Iron shield	Железный щит	bouclier de fer	żelazo tarcza	Eisenschild	escudo de hierro	escudo de ferro	铁盾牌	鉄の盾	लौह ढाल	درع الحديد
keyGold	Text		Gold key	Золотой ключ	clé d'or	złoty klucz	Gold-Schlüssel	llave de oro	chave de ouro	金钥匙	金の鍵	सोना कुंजी	مفتاح الذهب
keyIron	Text		Iron key	Железный ключ	clé fer	klucz żelazny	Eisen-Schlüssel	llave de hierro	chave de ferro	铁关键	アイアンキー	आयरन कुंजी	مفتاح الحديد
keyIronArlene	Text		Arlenes key	Ключ Арлин	clé Arlene	kluczem Arlene	Schlüssel Arlene	Arlene clave	chave Arlene	关键阿琳	キーアーリーン	कुंजी अर्लेने	الرئيسية ارلين
killerCrossbow	Text		Assassin's crossbow	Арбалет убийцы	arbalètes tueur	zabójca kusza	Killer-Armbrust	ballesta asesino	assassino besta	杀手弩	キラークロスボウ	हत्यारा क्रॉसबो	القاتل القوس والنشاب
meleeAttack	Text		Melee	Ближний	voisin	sąsiad	Nachbar	vecino	vizinho	邻居	隣人	पड़ोसी	الجيران
needExpPoint	Text		Need Exp.Points	Нехватает опыта	le manque d'expérience	brak doświadczenia	Erfahrung fehlt	falta de experiencia	sem experiência	缺乏经验	欠けている経験	कमी अनुभव	تجربة تفتقر
needKey	Text		Need Key	Нужен Ключ	Vous avez besoin d'une clé	Potrzebny jest klucz	Sie benötigen einen Schlüssel	Se necesita una llave	Você precisa de uma chave	你需要钥匙	あなたはキーが必要	आप एक कुंजी की आवश्यकता	تحتاج إلى مفتاح
needGold	Text		Need Gold	Нужно Золото	Nous devons d'or	Musimy złoto	Wir müssen zu Gold	Necesitamos Oro	Precisamos ouro	我们需要黄金	私たちは、ゴールドに必要	हम सोने की जरूरत है	نحن بحاجة إلى الذهب
pants	Text		Leather pants	Кожаные штаны	un pantalon en cuir	skórzane spodnie	Lederhose	pantalones de cuero	calças de couro	皮裤	革のズボン	चमड़े पतलून	السراويل الجلدية
purchaseCompleted	Text		Purchase Completed	Покупка совершена	Vous avez acheté	Kupiłeś	Sie haben gekauft	Usted ha comprado	Você comprou	您已购买	あなたは購入しました	आपके द्वारा खरीदे गए	لقد اشتريت
purchaseFailed	Text		Purchase Failed	Неудалось совершить покупку	Il n'a pas réussi à faire un achat	Nie udało mu się dokonać zakupu	Er scheiterte, einen Kauf zu tätigen	No pudo hacer una compra	Ele não conseguiu fazer uma compra	它没有进行购买	それは購入することができませんでした	यह एक खरीद बनाने में असफल	أنها فشلت في إجراء عملية شراء
redShield	Text		Red shield	Красный щит	bouclier rouge	czerwona tarcza	rotes Schild	escudo rojo	escudo vermelho	红色盾牌	赤い盾	लाल ढाल	درع أحمر
shootAttack	Text		Shoot	Дальний	distant	odległy	entfernt	distante	distante	遥远	遠く	दूर	بعيد
silverBow	Text		Silver bow	Серебренный лук	un arc d'argent	srebrny łuk	eine silberne Schleife	un arco de plata	um arco de prata	银弓	銀の弓	एक चांदी धनुष	القوس الفضية
simpleBow	Text		Bow	Лук	oignons	cebule	Zwiebeln	cebollas	cebolas	葱	玉葱	प्याज़	بصل
simpleCrossbow	Text		Crossbow	Арбалет	arbalète	kusza	Armbrust	ballesta	besta	弩	クロスボウ	क्रॉसबो	قوس ونشاب
simpleWoodShield	Text		Wooden shield	Деревянный щит	bouclier en bois	drewniana tarcza	Holzschild	escudo de madera	escudo de madeira	木盾	木製の盾	लकड़ी के ढाल	درع خشبي
skelet	Text		Skeleton	Скелет	squelette	szkielet	Skelett	esqueleto	esqueleto	骨架	スケルトン	कंकाल	هيكل عظمي
skelet_knight	Text		Skeleton Knight	Скелет Князь	squelette prince	Książę szkielet	Prince Skelett	Prince esqueleto	Príncipe esqueleto	王子骨架	プリンススケルトン	राजकुमार कंकाल	الأمير هيكل عظمي
skelet_warrior	Text		Skeleton Warrior	Скелет Воин	Guerrier squelette	szkielet Wojownik	Skelett-Krieger	esqueleto guerrero	esqueleto guerreiro	骷髅战士	スケルトン戦士	कंकाल योद्धा	الهيكل العظمي المحارب
sleepToDay	Text		Sleep to day	Спать до утра	Le sommeil jusqu'au matin	Sen do rana	Schlaf bis zum Morgen	Dormir hasta la mañana	Sono até a manhã	一觉睡到早上	朝まで睡眠	सुबह तक नींद	النوم حتى الصباح
sleepToNight	Text		Sleep to night	Спать до вечера	Le sommeil jusqu'au soir	Sen aż do wieczora	Schlaf bis zum Abend	Dormir hasta tarde	Dormir até tarde	一觉睡到晚上	夕方までスリープ	शाम तक नींद	النوم حتى المساء
sleepToRepair	Text		Sleep to repair	Спать до полного восстановления	Le sommeil jusqu'à la guérison complète	Sen, aż do całkowitego odzyskania	Schlaf bis zur vollständigen Genesung	Dormir hasta la recuperación completa	Sono até a recuperação completa	睡眠直到完全恢复	完全に回復するまでスリープ	पूरी वसूली तक नींद	النوم حتى الشفاء التام
spider_lev1	Text		Spider	Паук	araignée	pająk	Spinne	araña	aranha	蜘蛛	クモ	मकड़ी	عنكبوت
spider_lev2	Text		Spider	Паук	araignée	pająk	Spinne	araña	aranha	蜘蛛	クモ	मकड़ी	عنكبوت
spider_lev3	Text		Spider	Паук	araignée	pająk	Spinne	araña	aranha	蜘蛛	クモ	मकड़ी	عنكبوت
spider_lev4	Text		Spider	Паук	araignée	pająk	Spinne	araña	aranha	蜘蛛	クモ	मकड़ी	عنكبوت
spider_lev5	Text		Spider	Паук	araignée	pająk	Spinne	araña	aranha	蜘蛛	クモ	मकड़ी	عنكبوت
strangeBow	Text		Strange bow	Странный лук	arc étrange	dziwny łuk	seltsame Bogen	extraño arco	arco estranho	奇怪的弓	奇妙な弓	अजीब धनुष	القوس غريب
strengthComeBack	Text		strength came back to me	силы вернулись ко мне	force me revint	Siła wróciła do mnie	Kraft kam zu mir zurück	la fuerza volvió a mí	força voltou para mim	强度回来找我	強さは私に戻ってきました	शक्ति मेरे पास वापस आया	وجاءت قوة back to ي
strongBow	Text		Reinforced bow	Усиленный лук	arc renforcé	wzmocniony łuk	verstärkter Bogen	proa reforzada	arco reforçada	加强弓	強化弓	प्रबलित धनुष	القوس عززت
strongWoodenCrosbow	Text		Reinforced crossbow	Усиленный арбалет	arbalète	kusza	arbalest	arbalest	besta	劲弩	石弓	arbalest	القوس القذوف
sttAllWell	Text		all is well	все хорошо	tout va bien	wszystko jest dobrze	alles ist gut	todo está bien	tudo está bem	一切都很好	すべてが順調です	सब कुछ ठीक है	كل شيء على ما يرام
sttHealthLow	Text		I will die soon	я скоро умру	Je serai mort bientôt	Będę martwy wkrótce	Ich werde bald tot sein	Me voy a morir pronto	Eu estarei morto em breve	我很快就会死	私はすぐに死んでいるだろう	मैं जल्द ही मृत हो जाएगा	سأكون ميتا قريبا
sttHungry	Text		hungry	голоден	avide	głodny	hungrig	hambriento	faminto	饿	空腹の	भूखा	جائع
sttNeedSleep	Text		I want to sleep	хочу спать	Je veux dormir	Chcę spać	ich will schlafen	Quiero dormir	Eu quero dormir	我想睡觉	私は眠りたいです	मैं सोना चाहता हूँ	أريد أن أنام
sttRefresh	Text		Is it time to refresh yourself?	не пора ли подкрепиться?	s'il est temps de manger?	czy to jest czas do jedzenia?	ob es Zeit ist, zu essen?	si es hora de comer?	se é hora de comer?	无论是时间吃？	食べる時間であるかどうか？	चाहे वह खाने के लिए समय है?	ما إذا كان الوقت قد حان لتناول الطعام؟
sttStaminaLow	Text		tired	устал	fatigué	zmęczony	müde	cansado	cansado	厌倦	疲れました	थका	سئم
tradeConfirm	Text		ACCEPT	ПРИНЯТЬ	PRENEZ	LEK	TAKE	TOMAR	TOMAR	TAKE	TAKE	ले	خذ
tradeSeller	Text		Trading	Торговать	commerce	handel	Handel	comercio	comércio	贸易	トレード	व्यापार	تجارة
twoHand2	Text		Black death	Черная смерть	peste noire	czarna śmierć	schwarzer Tod	la muerte negro	peste negra	鼠疫	黒死病	काली मौत	الموت الأسود
twoHandBarbar	Text		Barbarian two-handed	Варварский двуручник	dvuruchnik barbare	barbarzyńskie dvuruchnik	barbarisch dvuruchnik	dvuruchnik bárbara	dvuruchnik bárbara	野蛮dvuruchnik	野蛮dvuruchnik	बर्बर dvuruchnik	dvuruchnik همجية
twoHandBig	Text		Large two-handed	Большой двуручник	grand dvuruchnik	duży dvuruchnik	große dvuruchnik	gran dvuruchnik	grande dvuruchnik	大dvuruchnik	大きなdvuruchnik	बड़ा dvuruchnik	dvuruchnik كبيرة
vilagerFemail_01	Text		Citizen	Горожанка	citoyen	obywatel	Bürger	ciudadano	cidadão	公民	市民	नागरिक	مواطن
vilagerFemail_02	Text		Citizen	Горожанка	citoyen	obywatel	Bürger	ciudadano	cidadão	公民	市民	नागरिक	مواطن
vilagerFemail_03	Text		Citizen	Горожанка	citoyen	obywatel	Bürger	ciudadano	cidadão	公民	市民	नागरिक	مواطن
vilagerFemail_04	Text		Citizen	Горожанка	citoyen	obywatel	Bürger	ciudadano	cidadão	公民	市民	नागरिक	مواطن
vilagerMail_01	Text		Citizen	Горожанин	citoyen	obywatel	Bürger	ciudadano	cidadão	公民	市民	नागरिक	مواطن
vilagerMail_02	Text		Citizen	Горожанин	citoyen	obywatel	Bürger	ciudadano	cidadão	公民	市民	नागरिक	مواطن
vilagerMail_03	Text		Citizen	Горожанин	citoyen	obywatel	Bürger	ciudadano	cidadão	公民	市民	नागरिक	مواطن
vilagerMail_04	Text		Citizen	Горожанин	citoyen	obywatel	Bürger	ciudadano	cidadão	公民	市民	नागरिक	مواطن
vilagerMail_06	Text		Citizen	Горожанин	citoyen	obywatel	Bürger	ciudadano	cidadão	公民	市民	नागरिक	مواطن
wolfAnimal	Text		Wolf	Волк	loup	wilk	Wolf	lobo	lobo	狼	狼	भेड़िया	الذئب
wolfBlackAnimal	Text		Black wolf	Черный волк	loup noir	czarny wilk	schwarzer Wolf	lobo negro	lobo negro	黑狼	黒狼	काला भेड़िया	الذئب الأسود
wolfNorthAnimal	Text		North wolf	Северный волк	loup du Nord	Północna wilk	Nord Wolf	lobo del Norte	lobo do Norte	北狼	北の狼	उत्तर भेड़िया	الذئب الشمالية
famail hunter	Text		Arlene	Арлин	Arlene	Arlene	Arlene	Arlene	Arlene	阿琳	アーリーン	अर्लेने	ارلين
fermerMail	Text		Imer	Имер	Imer	Imer	Imer	Imer	Imer	伊默尔	IMER	Imer	إيمر
elmosa	Text		Elmos	Эльмоса	Elmosa	Elmosa	Elmosa	Elmosa	Elmosa	Elmosa	Elmosa	Elmosa	Elmosa
lagord	Text		Lagord	Лагорд	Lagord	Lagord	Lagord	lagord	Lagord	拉戈尔	ラゴール	Lagord	Lagord
sigrin	Text		Sigrin	Сигрин	Sigrin	Sigrin	Sigrin	Sigrin	Sigrin	Sigrin	Sigrin	Sigrin	Sigrin
lemond	Text		Lemond	Лемонд	Lemond	LeMond	LeMond	LeMond	LeMond	雷蒙德	LeMond	LeMond	LEMOND
questTalkWithArlene	Text		Talk to Arlene	Поговори с Арлин	Parlez-en à Arlene	Porozmawiaj z Arlene	Sprechen Sie mit Arlene	Hablar con Arlene	Fale com Arlene	交谈阿琳	アーリーンに相談	अर्लेने से बात करें	التحدث مع ارلين
questArlenesKey	Text		Find Arlene's key	Найти ключ Арлин	Trouver la clé Arlene	Znajdź klucz Arlene	Finden Sie den Schlüssel Arlene	Encontrar la clave Arlene	Encontrar a chave Arlene	找到问题的关键阿琳	キーアーリーンを探します	कुंजी अर्लेने का पता लगाएं	العثور على ارلين الرئيسي
questTalkWithImer	Text		Talk to Imer	Поговори с Имером	Parlez-en à Imeri	Porozmawiaj z Imeri	Sprechen Sie mit Imeri	Hablar con Imeri	Fale com Imeri	交谈Imeri	Imeriに相談	Imeri से बात करें	التحدث مع Imeri
dialogArleneStartGame01	Text		Good weather to swim a bit !? My name is Arlene. What are you doing here?	Хорошая погода чтобы немного поплавать!? Меня зовут Арлин. Что ты здесь делаешь?	Beau temps pour nager un peu! Mon nom est Arlene. Que faites-vous ici?	Dobra pogoda pływać trochę! Nazywam się Arlene. Co ty tu robisz?	Gutes Wetter ein wenig zu schwimmen!? Mein Name ist Arlene. Was machst du hier?	El buen tiempo para nadar un poco!? Mi nombre es Arlene. ¿Qué haces aquí?	Bom tempo para nadar um pouco!? Meu nome é Arlene. O que você está fazendo aqui?	天气好的时候去游泳了一下！？我的名字是阿琳。你在这里干什么？	ビットを泳ぐのに良い天気！？私の名前はアーリーンです。あなたはここで何をしているの？	अच्छा मौसम थोड़ा तैरने के लिए? मेरा नाम अर्लेने है। तुम यहाँ क्या कर रहे हो?	الطقس الجيد أن تسبح قليلا!؟ اسمي ارلين. ماذا تفعلين هنا؟
dialogArleneStartGame02	Text		Finally I got to the land! I thought this would be the last night of my life! Nice to meet you. My name is…	Наконец то я добрался до суши! Я думал эта ночь будет последняя в моей жизни! Рад познакомиться. Меня зовут…	Enfin je suis arrivé à la terre! Je pensais que ce serait la dernière nuit de ma vie! Enchanté de faire votre connaissance. Mon nom est ...	W końcu dotarłem do ziemi! Myślałem, że to będzie ostatnia noc w moim życiu! Miło Pana poznać. Nazywam się ...	Schließlich habe ich in das Land! Ich dachte, das wäre die letzte Nacht meines Lebens sein! Freut mich dich kennen zu lernen. Ich heiße…	Finalmente llegué a la tierra! Pensé que esta sería la última noche de mi vida! Gusto en conocerlo. Mi nombre es ...	Finalmente cheguei à terra! Eu pensei que esta seria a última noite da minha vida! Prazer em conhecê lo. O meu nome é ...	最后我到了土地！我想这将是我生命中的最后一个晚上！认识你很高兴。我的名字是...	最後に、私は土地になりました！私は、これは私の人生の最後の夜になるだろうと思いました！はじめまして。わたしの名前は···	अंत में मैं देश के लिए मिल गया है! मुझे लगा कि यह मेरे जीवन का कल रात होगा! आपसे मिलकर अच्छा लगा। मेरा नाम है ...	وأخيرا وصلت إلى الأرض! اعتقدت أن هذا سيكون آخر ليلة من حياتي! تشرفت بمقابلتك. اسمي ...
dialogArleneStartGame03	Text		I do not care what your name. You're in my territory. And I'm not used to meet the guests here. So watch that you're here to do and say, and not what it really will be the last night for you.	Мне не важно как тебя зовут. Ты на моей территории. А я не привыкла встречать здесь гостей. Так что следи за тем что ты здесь делаешь и говоришь, а не то эта ночь действительно станет для тебя последней.	Je me fiche de ce que votre nom. Vous êtes dans mon territoire. Et je ne suis pas l'habitude de rencontrer les invités ici. Alors attention que vous êtes ici pour dire et faire, et non ce que ce sera vraiment la dernière nuit pour vous.	I nie obchodzi mnie, co twoje imię. Jesteś w moim terytorium. A ja nie jestem przyzwyczajony do spełnienia gości tutaj. Więc uważaj, że jesteś tutaj, aby zrobić i powiedzieć, a nie to, co naprawdę będzie ostatnią noc dla ciebie.	Ist mir egal, was Sie Ihren Namen. Du bist in meinem Gebiet. Und ich bin nicht die Gäste verwendet hier zu treffen. So beobachten, dass Sie hier zu tun sind und zu sagen, und nicht das, was es wirklich die letzte Nacht für Sie sein.	No me importa cuál sea su nombre. Estás en mi territorio. Y yo no estoy acostumbrado a conocer a los huéspedes aquí. Así que tenga cuidado de que estás aquí para hacer y decir, y no lo que realmente será la última noche para ti.	Não me importa o que o seu nome. Você está no meu território. E eu não estou acostumado a atender os convidados aqui. Então preste atenção que você está aqui para fazer e dizer, e não o que realmente será o último noite para você.	我不在乎你的名字。你是我的领地。我不习惯在这里迎接客人。所以，看你在这里做的和说的，而不是它真的会昨晚给你。	私はどのようなあなたの名前を気にしません。あなたは私の領土にしています。そして、私はここでゲストを満たすために使用されていませんよ。だから、それは本当にあなたのための最後の夜になりますあなたが何と言ってここにいることを見て、そしてません。	मैं क्या आपके नाम परवाह नहीं है। आप अपने क्षेत्र में कर रहे हैं। और मैं यहां अतिथियों को पूरा करने के लिए प्रयोग किया जाता है नहीं कर रहा हूँ। तो घड़ी है कि तुम यहाँ हो क्या करना है और कहने के लिए है, न कि क्या यह वास्तव में आप के लिए कल रात किया जाएगा।	لا يهمني ما اسمك. كنت في أراضي بلدي. وأنا لا تستخدم لتلبية الضيوف هنا. حتى مشاهدة أنك هنا للقيام به وأقول، وليس ما هو عليه حقا ستكون الليلة الماضية بالنسبة لك.
dialogArleneStartGame03A01	Text		Let me recover myself. I promise I will not give you problems.	Позволь мне немного прийти в себя. Обещаю я не доставлю тебе проблем.	Permettez-moi de me remettre. Je promets que je ne vais pas vous donner des problèmes.	Pozwól mi odnaleźć siebie. Obiecuję, że nie daje problemy.	Lassen Sie mich erholen. Ich verspreche, dass ich Ihnen keine Probleme geben.	Que recobre la misma. Prometo que no voy a dar problemas.	Deixe-me me recuperar. Eu prometo que não vai lhe dar problemas.	让我恢复自己。我保证我不会给你的问题。	私は自分自身を回復しましょう。私はあなたの問題を与えることはありません約束します。	मुझे अपने आप को ठीक होने दें। मैं वादा करता हूँ मैं तुम्हें समस्याओं नहीं देंगे।	اسمحوا لي أن استعادة نفسي. أعدك أنني لن تعطي لك المشاكل.
dialogArleneStartGame03A02	Text		For such insolence in my lands, pay in blood!	За такую дерзость, в моих краях, расплачиваются кровью!	Pour une telle insolence dans mes terres, payer dans le sang!	Dla takiej bezczelności w moich ziemiach płacić krwią!	Für eine solche Frechheit in meinem Land, zahlen im Blut!	Para tal insolencia en mis tierras, pagar en la sangre!	Para tal insolência em minhas terras, pagar em sangue!	在我的土地上这样的侮辱，支付血！	私の土地で、そのような横柄な態度のために、血液中に支払います！	मेरी भूमि में इतनी बदतमीजी के लिए, रक्त में भुगतान!	لمثل هذه الوقاحة في أراضي بلدي، ودفع في الدم!
dialogArleneStartGame03A01D01	Text		Good. Can you stay a little longer. How to come to your senses tell me. We figure out how you get out of here.	Хорошо. Можешь пожить еще немного. Как придешь в себя скажи мне. Придумаем как тебе выбраться отсюда.	Très bien. Pouvez-vous rester un peu plus longtemps. Comment venir à vos sens me disent. Nous comprendre comment vous sortir d'ici.	Dobrze. Można zatrzymać się trochę dłużej. Jak dojść do zmysły mi powiedzieć. Dowiemy się, jak się stąd wydostać.	Gut. Können Sie ein wenig länger bleiben. Wie kommen Ihre Sinne sagen mir. Wir herauszufinden, wie Sie hier raus.	Está bien. ¿Puede usted quedarse un poco más. Cómo llegar a sus sentidos me dicen. Nos damos cuenta de cómo salir de aquí.	Tudo bem. você pode ficar um pouco mais. Como chegar a seus sentidos me dizem. Nós descobrir como você sair daqui.	好的。你可以留久一点。如何来你的感官告诉我。我们找出你怎么离开这里。	わかりました。あなたは少し長く滞在することができます。あなたの感覚に来る方法を教えてください。私たちは、あなたがここから出方法を見つけ出します。	सब ठीक है। आप थोड़ी देर रह सकते हैं। कैसे आने के लिए करने के लिए अपने होश मुझे बताओ। हम यह पता लगाने की कैसे तुम यहाँ से बाहर निकलना।	حسنا. يمكنك البقاء لفترة أطول قليلا. كيفية التوصل إلى حواسك تقول لي. يمكننا معرفة كيف نخرج من هنا.
dialogArleneStartGame03A02D01	Text		Ha-ha! For the first time, I forgive you. But I do not advise you to try my patience. See you later.	Ха-ха! На первый раз я тебя прощу. Но не советую тебе испытывать мое терпение. Увидимся.	Ha-ha! Pour la première fois, je vous pardonne. Mais je ne vous conseille pas d'essayer ma patience. Rendez-vous.	Ha-ha! Po raz pierwszy, wybaczam ci. Ale nie radzę spróbować mojej cierpliwości. Do zobaczenia.	Ha ha! Zum ersten Mal, ich vergebe dir. Aber ich weiß nicht raten Sie meine Geduld zu versuchen. Sehen Sie.	Ja-ja! Por primera vez, te perdono. Pero no aconsejo que pruebe mi paciencia. Nos vemos.	Ha-ha! Pela primeira vez, eu te perdôo. Mas eu não aconselho que você tente minha paciência. Vê-lo.	呵呵！这是第一次，我原谅你。但我不建议你试试我的耐心。见你。	HA-HA！初めて、私はあなたを許します。しかし、私はあなたが私の忍耐を試すことをお勧めしません。あなたを参照してください。	हा-हा! पहली बार के लिए, मैं तुम्हें माफ कर दीजिए। लेकिन मैं तुम्हें मेरे धैर्य की कोशिश करने की सलाह नहीं है। आप देखें।	ها ها ها! لأول مرة، وأنا أغفر لك. ولكن أنا لا أنصح لك أن أجرب الصبر. أراك.
dialogArleneStartGame04	Text		I ship caught in a storm that night.	Я с корабля который попал в шторм этой ночью.	Je navire pris dans une tempête cette nuit-là.	Wysyłam złowionych w burzy w nocy.	Ich versende in der Nacht in einem Sturm gefangen.	Puedo enviar atrapado en una tormenta de la noche.	Eu navio pego em uma tempestade naquela noite.	那天晚上我的船遇上了风暴。	私はその夜、嵐に巻き込ま発送いたします。	मैं उस रात एक तूफान में पकड़ा जहाज।	أنا السفينة وقعوا في عاصفة في تلك الليلة.
dialogArleneStartGame05	Text		No ship I have not seen. It looks like you're not really know where he was. You Irnord on the island. Anaros on the outskirts of the empire. The city is located at the opposite end of the island. I think you need to get there.	Никакого корабля я не видела. Похоже ты не особо понимаешь где оказался. Ты на острове Ирнорд. На самой окраине империи Анарос. Город расположен на противоположном конце острова. Думаю тебе нужно туда попасть.	Aucun navire, je ne l'ai pas vu. On dirait que vous savez pas vraiment où il était. Vous Irnord sur l'île. Anarosa à la périphérie de l'empire. La ville est située à l'extrémité opposée de l'île. Je pense que vous avez besoin pour y arriver.	Żaden statek nie widziałem. Wygląda na to, że nie jesteś naprawdę wie, gdzie on jest. Ci Irnord na wyspie. Anaros na obrzeżach imperium. Miasto położone jest na drugim końcu wyspy. Myślę, że trzeba się tam dostać.	Kein Schiff habe ich nicht gesehen. Es sieht aus wie Sie nicht wirklich sind, wo er war. Sie Irnord auf der Insel. Anarosa am Rande des Reiches. Die Stadt liegt am anderen Ende der Insel. Ich glaube, Sie dorthin gelangen müssen.	Ninguna nave que no he visto. Parece que usted no está realmente sabe dónde estaba. Usted Irnord en la isla. Anaros en la periferia del imperio. La ciudad está situada en el extremo opuesto de la isla. Creo que se necesita para llegar allí.	Nenhum navio eu não vi. Parece que você não está realmente saber onde ele estava. Você Irnord na ilha. Anaros na periferia do império. A cidade está localizada no extremo oposto da ilha. Acho que você precisa para chegar lá.	没有船我还没有看到。它看起来像你真的不知道他在哪里。您Irnord岛上。在帝国的边界Anaros。这个城市位于岛的另一端。我想你需要到那里。	私は見ていないん船ません。彼はどこが本当に知っていないように見えます。あなたは島にIrnord。帝国の郊外にAnaros。市は島の反対側の端部に配置されます。私はあなたがそこに取得する必要があると思います。	कोई जहाज मैंने नहीं देखा है। ऐसा लगता है कि तुम सच में पता नहीं कर रहे हैं कि वह कहाँ गया। आप द्वीप पर Irnord। साम्राज्य के बाहरी इलाके में Anaros। शहर द्वीप के विपरीत छोर पर स्थित है। मैं वहां पहुंचने के लिए की जरूरत है।	أي سفينة أنا لم أر. يبدو أنك لا تعرف حقا حيث كان. كنت Irnord في الجزيرة. Anaros على مشارف الإمبراطورية. وتقع المدينة في الطرف الآخر من الجزيرة. أعتقد أنك في حاجة للوصول إلى هناك.
dialogArleneStartGame05A01	Text		How do I get to the city?	Как мне добраться до города?	Comment puis-je obtenir à la ville?	Jak mogę dostać się do miasta?	Wie komme ich in die Stadt bekommen?	¿Cómo llego a la ciudad?	Como faço para chegar à cidade?	我怎么去市区？	どのように私は街に入手できますか？	मैं शहर के लिए कैसे मिलता है?	كيف يمكنني الوصول إلى المدينة؟
dialogArleneStartGame05A02	Text		I'll know where to go!	Я сам знаю куда мне идти!	Je sais où aller!	Ja wiem, gdzie iść!	Ich werde wissen, wohin sie gehen!	Voy a saber dónde ir!	Eu vou saber para onde ir!	我就知道哪里去了！	私はどこへ行く知っていますよ！	मैं कहाँ जाना है पता चल जाएगा!	أنا أعرف إلى أين أذهب!
dialogArleneStartGame05A01D01	Text		No direct road to the city. To the east is the entrance to the cave from my house. The cave povernesh left and come out right on the farm with Imera.Pogovori Imeri, it will show you the way to the city.	Прямой дороги до города нет. На востоке от моего дома есть вход в пещеру. В пещере повернешь налево и выйдешь прямо на ферму Имера.Поговори с Имером, он покажет тебе дорогу до города.	Aucune route directe à la ville. À l'est, l'entrée de la grotte de ma maison. La grotte povernesh gauche et sortir à droite sur la ferme avec Imera.Pogovori Imeri, il vous montrera le chemin de la ville.	Brak bezpośredniego droga do miasta. Na wschodzie znajduje się wejście do jaskini z mojego domu. Jaskinia povernesh lewo i prawo wyjdzie na farmie z Imera.Pogovori Imeri, to pokaże ci drogę do miasta.	Kein direkter Weg in die Stadt. Im Osten befindet sich der Eingang zur Höhle von meinem Haus. Die Höhle povernesh rechts mit Imera.Pogovori Imeri auf dem Bauernhof links und kommen, wird es Ihnen den Weg in die Stadt zeigen.	No hay camino directo a la ciudad. Al este se encuentra la entrada a la cueva de mi casa. La cueva povernesh izquierda y sale bien en la granja con Imera.Pogovori Imeri, se le mostrará el camino a la ciudad.	No caminho direto para a cidade. Para o leste é a entrada da caverna da minha casa. A caverna povernesh esquerda e sair bem na fazenda com Imera.Pogovori Imeri, ele irá mostrar-lhe o caminho para a cidade.	没有直接的路到城市。在东面的入口在离我家了山洞。 povernesh左，出来的权利与Imera.Pogovori Imeri农场的洞穴，它会告诉你的方式到城市。	街には直接の道はありません。東には私の家から洞窟の入り口があります。左とImera.Pogovori Imeriと農場で右に出てくるpovernesh洞窟は、それはあなたの街への道が表示されます。	शहर के लिए कोई सीधा सड़क। पूर्व में मेरे घर से गुफा के द्वार है। गुफा povernesh छोड़ दिया और Imera.Pogovori Imeri साथ खेत पर सही बाहर आते हैं, यह आप शहर को रास्ता दिखाएगा।	لا الطريق المباشر إلى المدينة. إلى الشرق من مدخل الكهف من بيتي. الكهف povernesh اليسار ويخرج الحق في المزرعة مع Imera.Pogovori Imeri، وسوف تظهر لك الطريق إلى المدينة.
dialogArleneTrading01	Text		Show products	Покажи свои товары	Voir les produits	Pokaż produkty	Produkte anzeigen	Mostrar productos	Mostrar produtos	显示产品	商品を表示	दिखाएँ उत्पादों	عرض المنتجات
dialogArleneLearning01	Text		Can you teach me?	Ты можешь меня обучить?	Pouvez-vous me enseigner?	Możesz mnie nauczyć?	Können Sie mir beibringen?	¿Me puede enseñar?	Você pode me ensinar?	你能教我吗？	私に教えることができますか？	तुम मुझे सिखा सकते?	يمكن أن تعلمني؟
dialogArleneLearning02	Text		I can make you more nimble	Я могу сделать тебя более ловким	Je peux vous rendre plus agile	Mogę sprawić, że bardziej zwinny	Ich kann machen Sie flinke	Puedo hacer más ágil	Eu posso torná-lo mais ágil	我可以让你更灵活	私は、あなたがより軽快にすることができます	मैं आपको और अधिक चतुर बना सकते हैं	أنا يمكن أن تجعلك أكثر فطنة
dialogArleneLearning02A01	Text		trenerovat agility	Тренеровать ловкость	agilité trenerovat	trenerovat zwinność	trenerovat Agilität	agilidad trenerovat	agilidade trenerovat	trenerovat敏捷	trenerovatの俊敏性	trenerovat चपलता	trenerovat رشاقة
dialogArleneLearning02A01D01	Text		Now you've become more nimble	Теперь ты стал более ловким	Maintenant, vous êtes devenu plus agile	Teraz stałeś się bardziej zwinny	Jetzt haben Sie flinker geworden	Ahora te has vuelto más ágil	Agora que você se tornou mais ágil	现在，你已经变得更加灵活	今、あなたは、より軽快になりました	अब आप और अधिक चतुर हो गए	الآن كنت قد أصبحت أكثر فطنة
dialogArleneKeyQuest01	Text		I see you have a concern	Я вижу тебя что-то беспокоит	Je vois que vous avez un problème	Widzę, że masz obawy	Ich sehe, Sie haben eine Sorge	Veo que tiene una preocupación	Vejo que você tem uma preocupação	我看你有没有关注	私はあなたの懸念を持って見ます	मैं तुम्हें एक चिंता का विषय है देखना	أرى لديك قلق
dialogArleneKeyQuest02	Text		Yes, you're the observant! Damn goblins stole the key to my chest	Да ты у нас наблюдательный! Чертовы гоблины стащили ключ от моего сундука	Oui, vous êtes le observatrice! Satanés gobelins ont volé la clé de ma poitrine	Tak, jesteś spostrzegawczy! Cholerne gobliny ukradł klucz do mojej piersi	Ja, du bist der aufmerksame! Verdammt Kobolde stahl die Schlüssel zu meiner Brust	Sí, usted es el observador! duendes malditos robaron la llave de mi pecho	Sim, você é o observador! goblins malditos roubou a chave para o meu peito	是的，你是细心的！该死的妖精偷了钥匙到我的胸部	はい、あなたは厳守です！くそーゴブリンは私の胸に鍵を盗みました	हाँ, आप चौकस रहे हैं! अरे goblins मेरी छाती की कुंजी चुरा लिया	نعم، وكنت ملاحظ! سرق العفاريت لعنة مفتاح صدري
dialogArleneKeyQuest03	Text		I'll deal with it. Where to find them?	Я разберусь с этим. Где их можно найти?	Je vais faire face. Où les trouver?	Zajmę się tym. Gdzie można je znaleźć?	Ich werde damit umgehen. Wo sie zu finden?	Voy a tratar con él. Dónde encontrarlos?	Eu vou lidar com isso. Onde encontrá-los?	我会处理它。在哪里可以找到他们呢？	私はそれに対処するでしょう。どこでそれらを見つけるには？	मैं इसके साथ सौदा होगा। उन्हें कहाँ खोजने के लिए?	أنا التعامل معها. أين يمكن العثور عليها؟
dialogArleneKeyQuest04	Text		Goblins are not far away. Go to the rocks and turn left. Next, climb up the slope.	Гоблины не далеко. Иди к скалам и поверни налево. Затем поднимайся вверх по склону.	Les gobelins ne sont pas loin. Allez sur les rochers et tourner à gauche. Ensuite, monter la pente.	Gobliny nie są daleko. Idź do skał i skręcić w lewo. Następnie, wspinać się po zboczu.	Goblins sind nicht weit entfernt. Gehen Sie zu den Felsen und biegen Sie links ab. Als nächstes steigen den Hang hinauf.	Duendes no están muy lejos. Ir a las rocas y girar a la izquierda. A continuación, subir la cuesta.	Goblins não estão longe. Ir para as rochas e vire à esquerda. Em seguida, subir a encosta.	妖精并不遥远。去岩石和左转。接下来，爬上斜坡。	ゴブリンは遠くではありません。岩に移動し、左に回します。次に、坂を登ります。	Goblins ज्यादा दूर नहीं हैं। चट्टानों पर जाएं और बाएं बदल जाते हैं। इसके बाद, ढलान चढ़ाई।	العفاريت ليست بعيدة. انتقل إلى الصخور وتحويلها اليسار. بعد ذلك، تسلق المنحدر.
dialogArleneKeyQuest05	Text		I found your key	Я нашел твой ключ	J'ai trouvé votre clé	Znalazłem klucz	Ich fand Ihren Schlüssel	He encontrado su clave	Eu achei sua chave	我发现你的钥匙	私はあなたの鍵を見つけました	मैं अपनी चाबी पाया	لقد وجدت المفتاح الخاص بك
dialogArleneKeyQuest06	Text		I did not expect. I hope you had not taken advantage of them?	Этого я не ожидала. Надеюсь ты не успел воспользовался им?	Je ne m'y attendais pas. J'espère que vous ne l'aviez pas profité d'entre eux?	Nie spodziewałam. Mam nadzieję, że nie skorzystał z nich?	Ich habe nicht erwartet. Ich hoffe, dass Sie die Vorteile von ihnen nicht genommen hatte?	No esperaba. Espero que no se habían aprovechado de ellos?	Eu não esperava. Eu espero que você não tinha tomado partido deles?	我没想到。我希望你没有采取他们的优势在哪里？	私は期待していませんでした。私はあなたがそれらの利点を取られていなかった願っていますか？	मैं उम्मीद नहीं थी। मुझे आशा है कि आप उन्हें का लाभ नहीं लिया था?	لم أكن أتوقع. وآمل أن لم يستفاد منها؟
dialogArleneKeyQuest07	Text		I? No, I do not need someone else!	Я? Нет, мне чужого не надо!	Je? Non, je ne suis pas besoin de quelqu'un d'autre!	I? Nie, ja nie potrzebuję kogoś innego!	I? Nein, ich brauche nicht jemand anderes!	I? No, no necesito otra persona!	I? Não, eu não preciso de alguém!	我？不，我不需要别人！	I？いいえ、私は他の誰かを必要としません！	मैं? नहीं, मैं किसी और की जरूरत नहीं है!	I؟ لا، أنا لست بحاجة إلى شخص آخر!
dialogArleneKeyQuest08	Text		Really. Well here's your reward	Действительно. Ладно вот твоя награда	En effet. Eh bien voici votre récompense	Rzeczywiście. Więc oto twoja nagroda	In der Tat. Nun, hier ist Ihre Belohnung	En efecto. Pues aquí tienes tu recompensa	De fato. Bem, aqui está sua recompensa	事实上。那么这里是你的奖励	確かに。さてここであなたの報酬です	दरअसल। खैर यहां अपना पुरस्कार है	في الواقع. حسنا هنا أجركم
dialogArleneQuestionArmor01	Text		Where do I find the outfit?	Где мне найти снаряжение?	Où puis-je trouver la tenue?	Gdzie znajdę ten strój?	Wo finde ich das Outfit?	¿Dónde puedo encontrar el traje?	Onde posso encontrar a roupa?	在哪里可以找到的衣服？	どこで服を見つけるのですか？	मैं संगठन कहां ढूंढूं?	أين يمكنني العثور على الزي؟
dialogArleneQuestionArmor02	Text		I have in the house is a club. Can you take the time	У меня в доме лежит дубина. Можешь взять на время	J'ai dans la maison est un club. Pouvez-vous prendre le temps	Mam w domu jest klub. Można wziąć czas	Ich habe in dem Haus ein Club ist. Können Sie sich die Zeit nehmen,	Tengo en la casa es un club. Se puede tomar el tiempo	Eu tenho em casa é um clube. você pode ter o tempo	我在家里是一个俱乐部。你可以花时间	私はクラブで家に持っています。あなたは時間がかかる場合があります	मैं में घर एक क्लब है। आप समय लग सकता है	لدي في البيت هو النادي. يمكنك أن تأخذ الوقت
dialogArleneQuestionEat01	Text		I was tired and hungry	Я устал и голоден	J'étais fatigué et affamé	Byłem zmęczony i głodny	Ich war müde und hungrig	Estaba cansado y hambriento	Eu estava cansado e com fome	我累了，饿了	私は疲れと空腹でした	मैं थक गया और भूखा था	كنت متعبا وجائعا
dialogArleneQuestionEat02	Text		I'm not just here settled. Around full game. Hunt! Or even if you do not you can look for something edible is full of mushrooms. You can sleep in my house	Я не просто так здесь поселилась. Вокруг полно дичи. Охоться! Или если ты даже этого не можешь поищи что-нибудь съедобное здесь полно грибов. Поспать можешь у меня в доме	Je ne suis pas seulement ici réglé. Autour de jeu complet. Hunt! Ou même si vous ne pouvez pas vous chercher quelque chose comestible est plein de champignons. Vous pouvez dormir dans ma maison	Po prostu nie jestem tutaj osiedlili. Około pełnej wersji gry. Hunt! Lub nawet jeśli nie można patrzeć na coś jadalny jest pełen grzybów. Możesz spać w moim domu	Ich bin nicht nur hier angesiedelt. Rund Vollversion des Spiels. Jagd! Oder auch wenn Sie dies nicht tun können Sie suchen nach etwas essbar ist voller Pilze. Sie können in meinem Haus schlafen	No sólo estoy aquí establecidas. Alrededor de juego completo. Caza! O incluso si no lo hace se puede buscar algo comestible está lleno de setas. Se puede dormir en mi casa	Eu não estou aqui apenas resolvido. Por volta de jogo completo. Caça! Ou mesmo se você não fizer isso você pode olhar para algo comestível está cheio de cogumelos. Você pode dormir em minha casa	我不只是在这里定居。围满了比赛。亨特！或者即使你不这样做，你可以寻找一些食用充满蘑菇。您可以在我家睡	私はここに定住していませんよ。完全なゲームの周り。ハント！あるいは、そうでない場合でも、あなたは食用何かがキノコでいっぱいであるために見ることができます。あなたは私の家で寝ることができます	मैं तो बस यहां बसे नहीं कर रहा हूँ। पूर्ण खेल के आसपास। हंट! या यहां तक ​​कि अगर तुम नहीं आप के लिए कुछ खाद्य मशरूम से भरा हुआ है देख सकते हैं। आप मेरे घर में सो सकते हैं	أنا لا يسوى فقط هنا. حول مباراة كاملة. هانت! أو حتى لو كنت لا يمكن أن كنت تبحث عن شيء صالح للأكل مليء الفطر. يمكنك النوم في بيتي
dialogLemondMeting01	Text		So you survived!	Так ты выжил!	Alors vous avez survécu!	Więc przeżył!	So Sie überlebt!	Así que has sobrevivido!	Então você sobreviveu!	所以，你还活着！	だから、生き残りました！	तो तुम बच गया!	لذلك كنت على قيد الحياة!
dialogLemondMeting02	Text		LeMond glad to see you! Where are the others?	Лемонд рад тебя видеть! Где остальные?	Lemond heureux de vous voir! Où sont les autres?	LeMond miło cię widzieć! Gdzie są pozostali?	LeMond froh, Sie zu sehen! Wo sind die anderen?	LeMond contenta de verte! ¿Dónde están los demás?	LeMond contente de ver você! Onde estão os outros?	雷蒙德很高兴见到你！其他人在哪儿？	お会いできて嬉しいLeMond！他の人はどこにいますか？	LeMond खुशी है कि आप को देखने के लिए! कहाँ दूसरों रहे हैं?	LEMOND سعيد لرؤيتك! أين هي الأخرى؟
dialogLemondMeting03	Text		I dont know. I washed away immediately after you zabort	Я не знаю. Меня смыло заборт сразу после тебя	Je ne sais pas. J'emporté immédiatement après zabort	Nie wiem. I zmyte natychmiast po zabort	Ich weiß nicht. Ich weggespült sofort nach zabort	No se. Me lavé inmediatamente después de zabort	Eu não sei. I lavados imediatamente após zabort	我不知道。我冲走你zabort后立即	知りません。私はあなたがzabort直後に洗い流さ	मुझे नहीं मालूम। मैं धुल आप zabort के तुरंत बाद	لا أعرف. I جرفت مباشرة بعد zabort
dialogLemondMeting04	Text		Where is the ship?	Где корабль?	Où se trouve le navire?	Gdzie jest statek?	Wo ist das Schiff?	¿Dónde está la nave?	Onde está o navio?	哪里的船？	船はどこにありますか？	जहाज कहां है?	أين هو السفينة؟
dialogLemondMeting05	Text		I told you I do not know. Leave me alone!	Я же сказал я не знаю. Оставь меня впокое!	Je vous ai dit que je ne sais pas. Laissez-moi FBCF!	Mówiłem, że nie wiem. Pozostaw mi środki trwałe brutto!	Ich habe dir gesagt, ich weiß es nicht. Lass mich in Ruhe!	Te dije que no lo sé. dejarme FBCF!	Eu disse que não sei. Deixe-me FBCF!	我告诉你，我不知道。离开我GFCF！	私は、私にはわからないことを言いました。 GFCF私を残します！	मैंने आपको बताया था मैं नहीं जानता। मुझे जीएफसीएफ छोड़ दो!	قلت لك أنا لا أعرف. ترك لي التكوين الرأسمالي الثابت!
dialogLemondTryPaty01	Text		Come with me, we need to find a ship	Пойдем со мной, нам надо найти корабль	Viens avec moi, nous avons besoin de trouver un navire	Chodź ze mną, musimy znaleźć statek	Komm mit mir, wir brauchen ein Schiff zu finden	Ven conmigo, tenemos que encontrar un barco	Vem comigo, precisamos encontrar um navio	跟我来吧，我们需要找到一艘船	私と一緒に来て、私たちは船を見つける必要があります	मेरे साथ आओ, हम एक जहाज खोजने की जरूरत है	تعال معي، نحن بحاجة إلى العثور على سفينة
dialogLemondTryPaty02	Text		Not. I listened to you enough. We told you rotate home, but you're all raving about wealth. And here we find ourselves in some deep shit!	Нет. Я достаточно тебя слушал. Говорили тебе поворачивать домой, но ты все бредил о богатстве. И вот в каком дерьме мы оказались!	Non. J'ai écouté assez pour vous. Nous vous avons dit faites tourner la maison, mais vous êtes tous délirer sur la richesse. Et là, nous nous trouvons dans la merde profonde!	Nie. Słuchałem was dosyć. Powiedzieliśmy można obracać w domu, ale masz wszystko opowiadania o bogactwa. I tutaj znajdujemy się w jakimś głębokim gównie!	Nein. Ich hörte Sie genug. Wir haben sie gesagt dreht nach Hause, aber Sie schwärmen alle über Reichtum. Und hier haben wir uns in einer tiefen Scheiße finden!	No. Escuché que suficiente. Le dijimos que gira a casa, pero todo lo que estamos exaltar la riqueza. Y aquí nos encontramos en alguna mierda de profundidad!	Não. Eu ouvi o suficiente. Nós dissemos-lhe girar casa, mas está tudo delirante sobre a riqueza. E aqui nos encontramos em alguma merda profunda!	号我听了你的话就好了。我们告诉你旋转家，但你们都热烈讨论财富。在这里，我们发现自己在一些深层次的狗屎！	いいえ。私は十分にあなたに耳を傾けました。私たちは、あなたが家を回転させる語っていますが、すべての富についての狂乱しています。そしてここで我々はいくつかの深いたわごとで自分自身を見つけます！	नहीं। मैं काफी आप की बात सुनी। हम आपको घर बारी बारी से बताया है, लेकिन आप सब धन के बारे में दीवाना कर रहे हैं। और यहाँ हम कुछ गहरी गंदगी में अपने आप को लगता है!	لا. لقد استمعت إلى ما يكفي. قلنا لكم تدوير المنزل، ولكن كنت الهذيان كل شيء عن الثروة. وهنا نجد أنفسنا في بعض القرف العميق!
dialogLemondTryPaty03	Text		Look, now it is better to stay in place	Слушай, сейчас лучше держаться в месте	Regardez, maintenant il est préférable de rester en place	Spójrz, teraz lepiej jest pozostać w miejscu	Sehen Sie, jetzt ist es besser, an Ort und Stelle zu bleiben	Mira, ahora es mejor permanecer en el lugar	Olha, agora é melhor ficar no lugar	你看，现在最好是留在原地	今では場所に滞在することをお勧めします、見て	देखो, अब यह जगह में रहने के लिए बेहतर है	انظروا، الآن أنه من الأفضل أن تبقى في مكانها
dialogLemondTryPaty04	Text		From you better stay away	От тебя лучше держаться подальше	De mieux vous rester à l'écart	Od ciebie lepiej trzymać się z daleka	Von Ihnen besser wegbleiben	Desde que es mejor mantenerse alejado	De você melhor ficar longe	从你最好躲得远远的	あなたから離れてよりよいです	आप से बेहतर दूर रहना	من الأفضل لكم أن تبتعدوا
dialogImerWayToTown01	Text		Farmer. Where is your city?	Фермер. Где тут у вас город?	Agriculteur. Où est votre ville?	Rolnik. Gdzie jest Twoje miasto?	Farmer. Wo ist Ihre Stadt?	Agricultor. ¿Dónde está tu ciudad?	Farmer. Onde está a sua cidade?	农夫。哪里是你的城市？	ファーマー。あなたの都市はどこですか？	किसान। कहाँ अपने शहर है?	مزارع. أين هو مدينتك؟
dialogImerWayToTown02	Text		Go along the coast to the east. As you reach the cliff turns south and go along it. There also will be a city.	Иди вдоль берега на восток. Как дойдешь до скалы поворачивай на юг и иди вдоль неё. Там и будет город.	Allez le long de la côte à l'est. Lorsque vous atteignez la falaise tourne vers le sud et la longer. Il y aura aussi une ville.	Idź wzdłuż wybrzeża na wschód. Jak dotrzeć urwisko okazuje południe i iść wzdłuż niej. Nie będzie również miastem.	Gehen Sie entlang der Küste nach Osten. Wie Sie die Klippe dreht Süden und mitgehen es erreichen. Es wird auch eine Stadt sein.	Ir a lo largo de la costa hacia el este. Al llegar al acantilado gira hacia el sur e ir a lo largo de ella. También habrá una ciudad.	Vá ao longo da costa para o leste. Como chegar ao precipício vira para o sul e vá ao longo dela. Haverá também uma cidade.	沿海到东部去。当你到达悬崖转动南部，沿着它走。也将有一个城市。	東の海岸に沿って移動します。あなたが達すると崖が南になり、それに沿って行きます。また、市があります。	पूर्व में तट के साथ जाओ। आप तक पहुँचने के रूप में चट्टान दक्षिण बदल जाता है और इसके साथ चलते हैं। वहाँ भी एक शहर होगा।	الذهاب على طول الساحل إلى الشرق. كما يمكنك الوصول إلى الهاوية يتحول الجنوب وتذهب على طول ذلك. أيضا سيكون هناك المدينة.
dialogImerWayToTown03	Text		I understood	Я понял	Je compris	rozumiałem	Ich habe verstanden	entendí	compreendi	我的理解	私は理解し	मैं समझ गया	فهمت
dialogImerWayToTown04	Text		And I do not advise you to go there in dirty rags. You need a more decent clothes	И не советую тебе туда соваться в грязных лохмотьях. Тебе нужна одежда поприличнее	Et je ne vous conseille pas d'y aller en chiffons sales. Vous avez besoin d'un vêtement plus décent	I nie radzę tam w brudne szmaty. Potrzebny jest bardziej przyzwoitych ubrań	Und ich weiß nicht raten Sie es in schmutzigen Lumpen zu gehen. Sie brauchen eine anständige Kleidung	Y yo no aconsejo ir allí en trapos sucios. Es necesario una ropa más decente	E eu não aconselho a ir lá em trapos sujos. Você precisa de uma roupa mais decente	我不建议你去那里的肮脏的破布。你需要一个更像样的衣服	そして、私はあなたが汚いぼろにそこに行くことをお勧めしません。あなたはもっとまともな服を必要とします	और मैं तुम्हें गंदा चिथड़े में वहाँ जाने के लिए सलाह देने के लिए नहीं है। आप एक और अधिक सभ्य कपड़े की जरूरत है	وأنا لا أنصح لك أن تذهب هناك في الخرق القذرة. كنت في حاجة الى ملابس لائقة أكثر
dialogImerWolfsQuest01	Text		Where do I find clothes?	Где мне найти одежду?	Où puis-je trouver des vêtements?	Gdzie mogę znaleźć ubrania?	Wo finde ich Kleidung?	¿Dónde encuentro la ropa?	Onde posso encontrar roupas?	在哪里可以找到衣服？	どこで服を見つけるのですか？	मैं कपड़े कहां ढूंढूं?	أين يمكنني العثور على ملابس؟
dialogImerWolfsQuest02	Text		I have something for you. I can help you. But you have to have something to do	У меня есть кое что для тебя. Я могу тебе помочь. Но ты должен для меня кое-что сделать	J'ai quelque chose pour vous. Je peux vous aider. Mais vous devez avoir quelque chose à faire	Mam coś dla ciebie. Mogę ci pomóc. Ale trzeba mieć coś do zrobienia	Ich habe etwas für Sie. Ich kann Ihnen helfen. Aber Sie haben etwas zu tun haben	Tengo algo para ti. Puedo ayudarle. Pero hay que tener algo que ver	Eu tenho algo para você. Eu posso ajudá-lo. Mas você tem que ter algo a ver	我有东西给你。我可以帮你。但是你必须有事可做	私はあなたにプレゼントがあります私はあなたを助けることができます。しかし、あなたは何かを持っている必要があります	मैं तुम्हारे लिए कुछ है। क्या मैं आपकी मदद कर सकते हैं। लेकिन आप ऐसा करने के लिए कुछ है करने के लिए है	لدي شيء لك. لا أستطيع مساعدتك. ولكن عليك أن لها أن تفعل شيئا
dialogImerWolfsQuest03	Text		What do you want?	Чего ты хочешь?	Que voulez-vous?	Czego chcesz?	Was willst du?	¿Qué desea?	O que você quer?	你想要什么？	あなたは何をしたいですか？	तुम क्या चाहते हो?	ماذا تريد؟
dialogImerWolfsQuest04	Text		Right next to my farm is a pack of wolves. Get rid of these creatures	Прямо рядом с моей фермой расположилась стая волков. Избавься от этих тварей	Juste à côté de ma ferme est une meute de loups. Débarrassez-vous de ces créatures	Tuż obok mojego gospodarstwa to stado wilków. Pozbyć się tych stworzeń	Direkt neben meiner Farm ist ein Rudel Wölfe. Lassen Sie sich von diesen Kreaturen befreien	Justo al lado de mi granja es una manada de lobos. Deshacerse de estas criaturas	Mesmo ao lado da minha fazenda é uma matilha de lobos. Se livrar dessas criaturas	紧挨着我的农场是一群狼。摆脱这些生物	右隣に私の農場へのオオカミのパックです。これらの生き物を取り除きます	सही मेरे खेत के बगल में भेड़ियों का एक पैकेट है। इन प्राणियों से छुटकारा	بجوار مزرعتي هو مجموعة من الذئاب. تخلص من هذه المخلوقات
dialogImerWolfsQuest05	Text		Wolves no longer bother you	Волки тебя больше не побеспокоят	Les loups ne vous dérange pas	Wilki już nie przeszkadza	Wölfe nicht mehr stören	Lobos ya no le molestan	Lobos não incomodá-lo	狼不再烦你	オオカミは、もはやお邪魔しません	भेड़ियों अब आपको परेशान	الذئاب لم يعد يزعجك
dialogImerWolfsQuest06	Text		Fine. I do not even know how to thank you enough	Отлично. Не знаю даже как тебя отблагодарить	Excellente. Je ne sais même pas comment vous remercier assez	Doskonała. Ja nawet nie wiem, jak ci dziękować	Ausgezeichnet. Ich weiß nicht einmal, wie man genug danken	Excelente. Ni siquiera sé cómo agradecértelo lo suficiente	Excelente. Eu nem sei como lhe agradecer o suficiente	优秀的。我甚至不知道该怎么感谢你才好	優秀。私も十分に感謝する方法がわかりません	बहुत बढ़िया। मैं यह भी नहीं जानते कि आपके पास पर्याप्त कैसे शुक्रिया अदा करना	ممتاز. أنا لا أعرف حتى كيف أشكرك بما فيه الكفاية
dialogImerFildWorkQuest01	Text		How about the clothes that you promised?	Как насчет одежды которую ты обещал?	Que diriez-vous des vêtements que vous avez promis?	Jak o ubrania, które obiecałeś?	Wie über die Kleidung, die Sie versprochen haben?	¿Qué hay de la ropa que prometió?	Como sobre as roupas que você prometeu?	怎么样，你承诺的衣服吗？	どのようにあなたが約束した服はどうですか？	कैसे कपड़े है कि आप का वादा के बारे में?	ماذا عن الملابس التي كنت وعدت؟
dialogImerFildWorkQuest02	Text		Did not I promise it? Well so be it. But you do me a favor	Разве я обещал такое? Ну хорошо так и быть. Но и ты окажи мне услугу	Est-ce pas que je le promets? Eh bien soit. Mais vous me faites une faveur	Czy ja nie obiecuję go? Dobrze niech tak będzie. Ale robisz mi przysługę	Habe ich es nicht versprechen? Nun sei es so. Aber du mir einen Gefallen tun	¿No te prometo que? Pues que así sea. Pero me haces un favor	Não prometo isso? Bem que assim seja. Mas você me faça um favor	我不是答应了吗？好了就这样吧。但是，你帮我一个忙	私はそれを約束していないですか？まあそれをすること。しかし、あなたは私に好意を行います	मैं यह वादा नहीं किया था? खैर तो ठीक है। लेकिन तुम मेरा एक काम करना	لم أعدك ذلك؟ حسنا فليكن. ولكنك لي معروفا
dialogImerFildWorkQuest03	Text		How many more services should I provide to you?	Сколько еще услуг я должен оказать тебе?	Combien de services dois-je pour vous fournir?	Ile więcej usług powinien dostarczyć do ciebie?	Wie viele weitere Dienste sollte ich zu Ihnen?	¿Cuántas más servicios debería ofrecer a usted?	Quantos mais serviços devo fornecer para você?	我应该如何更多的服务提供给你？	私はあなたにどのように多くのより多くのサービスを提供しなければなりませんか？	मैं आप के लिए और कितने सेवाएं प्रदान करना चाहिए?	كم عدد المزيد من الخدمات التي يجب أن تقدم لك؟
dialogImerFildWorkQuest04	Text		So. I need help in the harvest. Collect seed from my field and bring it to me.	Так вот. Мне нужна помощь в сборе урожая. Собери зерно с моего поля и принеси мне.	So. Je besoin d'aide pour la récolte. Prélever les graines de mon champ et me l'apporter.	So. Potrzebuję pomocy w żniwach. Zbierać nasiona z mojego pola i przynieść go do mnie.	Also. Ich muss bei der Ernte helfen. Sammeln Samen aus meinem Feld und bringt sie mir.	So. Necesito ayuda en la cosecha. Recolectar semillas de mi campo y llevarla a mí.	So. Preciso de ajuda na colheita. Recolha de sementes do meu campo e trazê-lo para mim.	所以。我需要在收获帮助。从我收集现场种子和它带给我。	Soが私は収穫で助けを必要としています。私のフィールドから種子を収集し、私にそれを持って来ます。	So. मैं फसल में मदद की जरूरत है। मेरे खेत से बीज एकत्र करें और मुझे पर ले आएं।	هكذا. أحتاج مساعدة في موسم الحصاد. جمع البذور من مجال عملي وجعله بالنسبة لي.
dialogImerFildWorkQuest05	Text		Here's your corn	Вот твое зерно	Voici votre maïs	Oto twoja kukurydza	Hier ist dein Mai	Aquí tiene su maíz	Aqui está o seu milho	这是你的玉米	ここにあなたのトウモロコシです	यहाँ अपने मकई है	وهنا الذرة الخاص بك
dialogImerFildWorkQuest06	Text		Fine. You'll make a great farmer!	Отлично. Из тебя получился отличный крестьянин!	Excellente. Vous ferez un grand fermier!	Doskonała. Zrobisz wielkie rolnika!	Ausgezeichnet. Sie werden einen großen Bauer machen!	Excelente. Usted va a hacer un gran agricultor!	Excelente. Você vai fazer um grande fazendeiro!	优秀的。你会成为一位伟大的农民！	優秀。あなたは素晴らしい農家を作りますよ！	बहुत बढ़िया। आप एक महान किसान बनाती हूँ!	ممتاز. سوف تجعل المزارع عظيم!
dialogImerFildWorkQuest07	Text		Yes, I dreamed about it. So what about the clothes?	Да, я мечтал об этом. Так как насчет одежды?	Oui, je rêvais à ce sujet. Alors, que sur les vêtements?	Tak, marzyłem o tym. Więc co o ubraniach?	Ja, ich träumte davon. Also, was über die Kleidung?	Sí, soñé con ella. Entonces, ¿qué pasa con la ropa?	Sim, eu sonhava com isso. Assim que sobre as roupas?	是的，我梦到它。那么怎么样的衣服？	はい、私はそれについて夢見ていました。だから何の服は？	हाँ, मैं इसके बारे में सपना देखा। तो क्या कपड़े के बारे में?	نعم، كنت أحلم به. وماذا عن الملابس؟
dialogImerFildWorkQuest08	Text		Here are your clothes. And here's grain. Take him to the city merchant Sigrinu	Вот твоя одежда. А вот тебе зерно. Доставь его в город торговцу Сигрину	Voici vos vêtements. Et voici le grain. Prenez-le au marchand de la ville Sigrinu	Oto ubrania. A oto ziarno. Zabierz go do kupca miasta Sigrinu	Hier sind Ihre Kleidung. Und hier ist Getreide. Nehmen Sie ihn in die Stadt Händler Sigrinu	Aquí están sus ropas. Y aquí está el grano. llevarlo al comerciante de la ciudad Sigrinu	Aqui estão suas roupas. E aqui está grãos. Leve-o para o comerciante da cidade Sigrinu	这里是你的衣服。而这里的粮食。带他到城市商人Sigrinu	ここにあなたの服があります。そして、ここでは穀物です。街の商人に彼を取るSigrinu	यहाँ अपने कपड़े हैं। और यहाँ अनाज है। उसे शहर व्यापारी को ले लो Sigrinu	وهنا ملابسك. وهنا الحبوب. خذوه إلى التاجر مدينة Sigrinu
dialogImerFildWorkQuest09	Text		necessarily	Обязательно	nécessairement	koniecznie	notwendigerweise	necesariamente	necessariamente	一定	必ずしも	जरूरी	بالضرورة
dialogElmosIngridientsQuest01	Text		Can I help you?	Я могу чем-то помочь?	Je peux faire quelque chose pour aider?	Mogę coś zrobić, aby pomóc?	Ich kann etwas tun, um zu helfen?	Puedo hacer algo para ayudar?	Posso fazer algo para ajudar?	我可以做什么来帮助？	私は助けるために何かをすることができますか？	मैं मदद करने के लिए कुछ कर सकते हैं?	أستطيع أن أفعل شيئا لمساعدة؟
dialogElmosIngridientsQuest02	Text		I'm running out supplies. Bring me 10 of mushrooms and 5 pieces of meat. And I will reward you handsomely	У меня заканчиваются припасы. Принеси мне 10 грибов и 5 кусков мяса. И я щедро вознагражу тебя	Je suis à court de fournitures. Apportez-moi 10 de champignons et 5 morceaux de viande. Et je vous récompenserai grassement	Kończy mi się zapasy. Przynieś mi 10 grzybów i 5 kawałków mięsa. I będę cię sowicie wynagrodzi	Ich laufe aus Lieferungen. Bringt mir 10 von Pilzen und 5 Stück Fleisch. Und ich werde dich reichlich belohnen	Me estoy quedando sin suministros. Tráeme 10 de setas y 5 piezas de carne. Y te recompensaré generosamente	Eu estou ficando sem suprimentos. Traga-me 10 de cogumelos e 5 pedaços de carne. E eu vou recompensá-lo generosamente	我跑出来用品。给我肉蘑菇的10条5件。我会报答你丰厚	私は物資を実行していますよ。私にキノコや肉の5枚の10を持参してください。そして、私は気前よくあなたに報酬を与えるだろう	मैं बाहर की आपूर्ति चल रहा हूँ। मुझे मांस के मशरूम के 10 और 5 टुकड़े ले आओ। और मैं तुम्हें खूबसूरत पुरस्कृत करेगा	أنا على التوالي من الإمدادات. أحضر لي 10 من الفطر و 5 قطع من اللحم. وأنا سوف يجزيك رائع
dialogElmosIngridientsQuest03	Text		I brought what you asked	Я принес то что ты просила	J'ai apporté ce que vous avez demandé	Przywiozłem co pytasz	Ich habe, was Sie gefragt	Me trajo lo que pidió	Eu trouxe o que você pediu	我给你带来了什么问	私はあなたが尋ねたものをもたらしました	मैं तुम्हें क्या पूछा लाया	احضرت ما طلبتم
dialogElmosIngridientsQuest04	Text		Thank you. Here is your reward	Благодарю. Вот твоя награда	Merci. Voici votre récompense	Dziękuję. Oto twoja nagroda	Danke. Hier ist Ihre Belohnung	Gracias. Aquí está tu recompensa	Obrigado. Aqui está a sua recompensa	谢谢。这是你的报酬	ありがとうございます。ここにあなたの報酬です	धन्यवाद। यहाँ अपने इनाम है	شكرا لك. هنا هو أجرك
dialogGareskLearning01	Text		Can you teach me?	Ты можешь меня обучить?	Pouvez-vous me enseigner?	Możesz mnie nauczyć?	Können Sie mir beibringen?	¿Me puede enseñar?	Você pode me ensinar?	你能教我吗？	私に教えることができますか？	तुम मुझे सिखा सकते?	يمكن أن تعلمني؟
dialogGareskLearning02	Text		I can make you stronger	Я могу сделать тебя более сильным	Je peux vous rendre plus fort	Mogę sprawić, że silniejszy	Ich kann dich stärker machen	Puedo hacer más fuerte	Eu posso te fazer mais forte	我可以让你更坚强	私はあなたを強くすることができます	मैं आप मजबूत कर सकते हैं	أنا يمكن أن تجعلك أقوى
dialogGareskLearning02A01	Text		power train	Тренировать силу	groupe motopropulseur	napędowy	Antriebsstrang	tren de potencia	trem de força	动力火车	パワートレイン	शक्ति ट्रेन	قطار السلطة
dialogGareskLearning02A01D01	Text		Now you have become stronger	Теперь ты стал сильнее	Maintenant, vous êtes devenu plus fort	Teraz stałeś się silniejszy	Jetzt haben Sie stärker geworden	Ahora se han vuelto más fuertes	Agora você se tornou mais forte	现在你已经变得更强	今、あなたが強くなってきました	अब आप मजबूत हो गए हैं	الآن كنت قد أصبحت أقوى
dialogGareskMeeting01	Text		Garesk buddy! I'm glad to see you!	Гареск дружище! Рад тебя видеть!	ami Garesk! Je suis heureux de vous voir!	Garesk kolego! Miło cię widzieć!	Garesk Kumpel! Ich bin froh, dich zu sehen!	Garesk amigo! Contento de verte!	Garesk amigo! Fico feliz em vê-lo!	Garesk哥们！很高兴见到你！	Gareskバディ！お会いできてうれしいです！	Garesk साथी! खुशी है कि आप को देखने के लिए!	Garesk الأصدقاء! سعيد لرؤيتك!
dialogGareskMeeting02	Text		Hey Ya	Здарова	zdarova	zdarova	zdarova	zdarova	zdarova	zdarova	zdarova	Zdarova	zdarova
dialogGareskMeeting03	Text		How did you get here?	Как ты здесь оказался?	Comment avez-vous ici?	Jak się tu dostałeś?	Wie bist du hier?	¿Cómo has llegado hasta aquí?	Como você chegou aqui?	你怎么在这里？	どうやってそこに着きましたの？	आप यहाँ कैसे आया?	كيف تحصل هنا؟
dialogGareskMeeting04	Text		I am here because of you and your crazy ideas!	Я здесь благодаря тебе и твоим бредовым идеям!	Je suis ici à cause de vous et vos idées folles!	Jestem tutaj z powodu ciebie i twoich szalonych pomysłów!	Ich bin hier, weil Sie und Ihre verrückten Ideen!	Estoy aquí por ti y tus ideas locas!	Eu estou aqui por causa de você e suas idéias malucas!	我是因为你和你疯狂的想法在这里！	ため、私はあなたとあなたの狂ったアイデアをここです！	मैं यहाँ आप और आपके पागल विचारों की वजह से हूँ!	وأنا هنا بسببك وأفكار مجنونة بك!
dialogLagordBeforeCity01	Text		Stop! Not if you're going to the city?	Стой! Не в город ли ты собрался?	Stop! Pas si vous allez à la ville?	Stop! Nie, jeśli idziesz do miasta?	Stop! Nicht, wenn man in die Stadt geht?	Parar! No si vas a la ciudad?	Pare! Não se você está indo para a cidade?	住手！如果你不打算在城市？	ストップ！あなたは街に行っているではありませんか？	बंद करो! आप शहर के लिए जा रहे हैं नहीं कर रहे?	توقف! ليس إذا كنت تريد الذهاب إلى المدينة؟
dialogLagordBeforeCity02	Text		Any problems?	Какие то проблемы?	Quels sont les problèmes?	Jakie są problemy?	Was sind die Probleme?	¿Cuáles son los problemas?	Quais são os problemas?	究竟是什么问题？	問題は何ですか？	समस्याओं क्या हैं?	ما هي المشاكل؟
dialogLagordBeforeCity03	Text		Yes. By you. So ragged here nothing to do. Get out of here	Да. У тебя. Таким оборванцам здесь нечего делать. Убирайся отсюда	Oui. Vous. Donc, loqueteux ici rien à faire. Sortez d'ici	Tak. Ty. Tak obdarty tu nic do roboty. Stąd wydostać	Ja. Bei dir. So zackig hier nichts zu tun. Raus hier	Sí. Usted. Así desigual aquí nada que ver. ¡Fuera de aquí	Sim. Você. Então irregular aqui nada para fazer. Saia daqui	是。你。所以在这里衣衫褴褛无关。快滚	はい。あなた。だからここには何の関係もぼろぼろません。ここから抜け出します	हां। आप। तो यहाँ कोई लेना देना नहीं रैगिंग। यहाँ से बाहर जाओ	نعم. لك. حتى خشنة هنا أن تفعل شيئا. اخرج من هنا
dialogLagordBeforeCity04A01	Text		I'll see you another time	Тогда увидимся в другой раз	Je vous verrai une autre fois	Zobaczę cię innym razem	Ich werde Ihnen ein anderes Mal sehen	Nos veremos otra vez	Eu vou te ver outra vez	我会看到你的另一时间	私はあなたに別の時間が表示されます	मैं आपको एक और समय देखेंगे	أنا أراكم مرة أخرى
dialogLagordBeforeCity04A02	Text		I do not ragged and quite a wealthy citizen	Я не оборванец а вполне состоятельный гражданин	Je ne haillons et tout à fait un riche citoyen	Ja nie poszarpane i dość zamożny obywatel	Ich glaube nicht, zerlumpt und ein ziemlich reicher Bürger	Yo no irregular y un ciudadano muy rico	Eu não irregular e bastante um cidadão rico	我不衣衫褴褛，相当富有的公民	私はぼろぼろとかなり裕福な市民ではありません	प्रचंड नहीं मुझे क्या करना है और काफी एक धनी नागरिक	أنا لا خشنة وغير قليل من المواطنين الأثرياء
dialogLagordBeforeCity04A03	Text		Get out of my way if you value your life!	Уйди с моей дороги если тебе дорога жизнь!	Sortez de mon chemin si vous la valeur de votre vie!	Zejdź mi z drogi, jeśli cenisz swoje życie!	Geh mir aus dem Weg, wenn dir dein Leben!	¡Fuera de mi camino si el valor de su vida!	Saia do meu caminho, se você valoriza a sua vida!	滚出我的方式，如果你珍惜你的生活！	あなたの人生を価値場合は、私の道から出て行け！	मेरे रास्ते से हट जाओ, तो आप अपने जीवन को महत्व देते हैं!	الخروج من طريقي إذا كنت قيمة حياتك!
dialogLagordBeforeCity04A02D01	Text		Wealthy? It is another matter! With you 100 coins and can be held	Состоятельный? Это другое дело! С тебя 100 монет и можешь проходить	Wealthy? Il est une autre affaire! Avec vous 100 pièces de monnaie et peut être tenu	Zamożny? To jest inna sprawa! Z tobą 100 monet i może być pociągnięty	Wohlhabende? Es ist eine andere Sache! Mit Ihnen 100 Münzen und gehalten werden kann	Rico? Otra cosa es! Con ustedes 100 monedas y puede ser considerado	Rico? É outro assunto! Com vocês, 100 moedas e pode ser realizada	富丽？这是另一回事！随着你100枚金币，可以举行	裕福？それは別の問題です！もし100枚のコインでかつ保持することが可能	अमीर? यह अलग बात है! आप 100 सिक्कों के साथ और आयोजित किया जा सकता	الأثرياء؟ ومن شأن آخر! معك 100 قطعة نقدية، ويمكن عقد
dialogLagordBeforeCity04A02D01A01	Text		Here's your 100 coins	Вот твои 100 монет	Voici vos 100 pièces	Oto twoi 100 monet	Hier ist Ihre 100 Münzen	Aquí están sus 100 monedas	Aqui está suas moedas 100	这是你的100枚硬币	ここにあなたの100枚のコインです	यहाँ अपने 100 सिक्के है	وهنا لديك 100 قطعة نقدية
dialogLagordBeforeCity04A02D01A02	Text		Maybe a bit later	Может немного позже	Peut-être un peu plus tard	Może trochę później	Vielleicht ein wenig später	Tal vez un poco más tarde	Talvez um pouco mais tarde	也许有点晚	たぶん少し後	हो सकता है कि एक छोटे से बाद	ربما قليلا في وقت لاحق
dialogLagordBeforeCity04A03D01	Text		Are you brave! But very stupid	А ты смелый! Но очень глупый	Êtes-vous courageux! Mais très stupide	Czy jesteś odważny! Ale bardzo głupie	Sind Sie mutig! Aber sehr dumm	¿Es usted valiente! Pero muy estúpida	Você é corajoso! Mas muito estúpido	你勇敢！但是很愚蠢	あなたは勇敢です！しかし、非常に愚かな	आप बहादुर हैं! लेकिन बहुत बेवकूफ	هل أنت شجاع! ولكن غبي جدا
dialogLagordInCity01	Text		So you do not belong here. Say goodbye to the life!	Таким как ты здесь не место. Прощайся с жизнью!	Donc, vous n'appartenez pas ici. Dites adieu à la vie!	Więc nie należą tutaj. Pożegnaj się z życiem!	So Sie gehören nicht hierher. Verabschieden Sie das Leben!	Por lo que no perteneces a este lugar. Decir adiós a la vida!	Então você não pertence aqui. Diga adeus à vida!	所以，你不属于这里。告别的生命！	だから、ここに属していません。生活に別れを告げます！	तो तुम यहाँ के नहीं हैं। जीवन को अलविदा कहें!	لذلك أنت لا تنتمي هنا. نقول وداعا للحياة!
dialogLagordInCity01A01	Text		I am already leaving!	Я уже ухожу!	Je pars!	Odchodzę!	Ich verlasse!	Me voy!	Eu estou saindo!	我要走了！	私は残しています！	मैं जा रहा हूँ!	سأرحل!
dialogLagordInCity01A02	Text		You took me for someone else. I think 100 coins will smooth this misunderstanding	Ты меня принял за другого. Думаю 100 монет сгладят это недоразумение	Tu me pris pour quelqu'un d'autre. Je pense que 100 pièces aplaniront ce malentendu	Wziąłeś mnie za kogoś innego. Myślę 100 monet będzie wygładzić to nieporozumienie	Sie hat mich für jemand anderen. Ich denke, 100 Münzen dieses Missverständnis glätten werden	Usted me llevó a otra persona. Creo que 100 monedas van a suavizar este malentendido	Você me levou para outra pessoa. Eu acho que 100 moedas irá suavizar este mal-entendido	你把我当成别人。我想，100枚硬币将顺利完成这一误区	あなたは他の誰かのために連れて行ってくれました。私は100枚のコインが、この誤解を滑らかになると思います	तुम मुझे किसी और के लिए ले लिया। मुझे लगता है कि 100 सिक्के इस गलतफहमी चिकनी जाएगा	كنت أخذت لي لشخص آخر. أعتقد أن 100 قطعة نقدية على نحو سلس سوء الفهم هذا
dialogLagordInCity01A03	Text		Let the best man win!	Пусть победит сильнейший!	Que le meilleur gagne!	Niech wygra najlepszy człowiek!	Lassen Sie der beste Mann gewinnen!	Deje que gane el mejor!	Deixe o melhor homem ganhar!	让最好的人赢了！	最高の男が勝つてみよう！	सबसे अच्छा आदमी जीत करते हैं!	دع أفضل رجل يفوز!
dialogLagordInCity01A02D01	Text		Then welcome! So you are always welcome	Тогда добро пожаловать! Таким как ты мы всегда рады	Alors bienvenue! Donc, vous êtes toujours les bienvenus	Następnie zapraszamy! Więc jesteś zawsze mile widziane	dann willkommen! So sind Sie immer willkommen	Entonces bienvenido! Por lo que siempre son bienvenidos	Então bem-vindo! Então, você é sempre bem-vindos	然后，欢迎！所以，你总是欢迎	その後、歓迎！だから、あなたは常に歓迎されています	तो आपका स्वागत है! तो तुम हमेशा स्वागत कर रहे हैं	ثم نرحب! لذلك كنت دائما موضع ترحيب
dialogLagordWithCloth01	Text		I am here before you did not see. Who are you?	Я тебя раньше здесь не видел. Ты кто такой?	Je suis ici avant que vous ne l'avez pas vu. Qui êtes-vous?	Jestem tu wcześniej nie widziałeś. Kim jesteś?	Ich bin hier, bevor Sie nicht sehen. Wer bist du?	Estoy aquí antes de que no viste. ¿Quién es usted?	Estou aqui antes de você não viu. Quem é você?	我在这里，你没看之前。你是谁？	あなたが見ていなかったの前に私はここにいます。あなたは誰？	इससे पहले कि आप नहीं देखा मैं यहाँ हूँ। तुम कौन हो?	أنا هنا من قبل كنت لا ترى. من أنت؟
dialogLagordWithCloth02	Text		I'm just a farmer	Я просто крестьянин	Je suis un agriculteur	Jestem rolnikiem	Ich bin nur ein Bauer	Sólo soy un agricultor	Eu sou apenas um agricultor	我只是一个农民	私は農家です	मैं सिर्फ एक किसान हूँ	أنا مجرد مزارع
dialogLagordWithCloth03	Text		I am a wealthy merchant	Я богатый торговец	Je suis un riche marchand	Jestem bogaty kupiec	Ich bin ein reicher Kaufmann	Soy un rico comerciante	Eu sou um rico comerciante	我是一个富有的商人	私は裕福な商人です	मैं एक धनी व्यापारी हूँ	أنا تاجر ثري
dialogLagordWithCloth04	Text		And what did you have in the city?	И что тебе понадобилось в городе?	Et qu'est-ce que vous avez dans la ville?	A co masz w mieście?	Und was hast du in der Stadt?	Y lo tienes en la ciudad?	E o que você tem na cidade?	你是怎么在这个城市有哪些？	そして、あなたは街で何を持っていましたか？	और क्या आप शहर में है?	وماذا لديك في المدينة؟
dialogLagordWithCloth05	Text		I came to sell grain	Я пришел продать зерно	Je suis venu à vendre des céréales	I przyszedł sprzedać zboże	Ich kam Getreide zu verkaufen	Vine a vender el grano	Eu vim para vender grãos	我来卖粮	私は穀物を売るようになりました	मैं अनाज बेचने के लिए आया था	جئت لبيع الحبوب
dialogLagordWithCloth06	Text		Come	Проходи	venir	przyjść	kommen	venir	vir	来	来ます	आना	تعال
dialogLagordWithCloth07	Text		None of your business	Не твое дело	Aucun de votre entreprise	Nie twój interes	Nicht deine Sache	Ninguno de su negocio	Nenhum dos seus negócios	关你屁事	大きなお世話	तुम्हारा कार्य नहीं	ليس من شأنك
dialogLagordWithCloth08	Text		Rich? Then you have certain there will be extra 100 coins is not it?	Богатый? Тогда у тебя наверняка найдется лишних 100 монет не так ли?	Rich? Ensuite, vous avez certains, il y aura 100 pièces supplémentaires non?	Bogaty? Wtedy nie będzie mieć pewne dodatkowe 100 monet prawda?	Reichen? Dann haben Sie sicher, es wird 100 Münzen Extra sein, nicht wahr?	Rica? Entonces no tiene seguro adicional será de 100 monedas ¿verdad?	Rico? Então você tem certeza de que não vai ser mais 100 moedas não é?	有钱吗？然后，你有一定还会有额外的100枚硬币是不是？	リッチ？次に、あなたが特定されていない余分な100枚のコインがあるでしょうか？	रिच? तो फिर तुम कुछ वहाँ 100 सिक्के अतिरिक्त होगा ना है?	الأغنياء؟ ثم لديك بعض سيكون هناك إضافي قدره 100 قطعة نقدية أليس كذلك؟
dialogLagordWithCloth09	Text		It's not a problem. Here's your money	Это не проблема. Вот твои деньги	Ce n'est pas un problème. Voici votre argent	To nie jest problem. Oto twoje pieniądze	Das ist kein Problem. Hier ist Ihr Geld	Este no es un problema. Aquí tiene su dinero	Este não é um problema. Aqui está o seu dinheiro	这不是一个问题。这里是你的钱	これは問題ではありません。ここにあなたのお金です	यह एक समस्या नहीं है। यहाँ अपने पैसे है	هذه ليست مشكلة. وهنا أموالك
dialogLagordWithCloth10	Text		Not our kind of money with him	Не нашу с собой такие деньги	Pas notre genre d'argent avec lui	Nie nasz rodzaj pieniędzy z nim	Nicht unsere Art von Geld mit ihm	No es nuestro tipo de dinero con él	Não o nosso tipo de dinheiro com ele	非我族类的钱，他	彼とお金のない私たちのようなもの	उसके साथ पैसे की नहीं हमारी तरह	ليس لدينا نوع من المال معه
dialogLagordWithCloth11	Text		Then there is nothing to make a fool of me!	Тогда нечего меня дурить!	Ensuite, il n'y a rien à faire un fou de moi!	Wtedy nie ma nic zrobić ze mnie głupca!	Dann gibt es nichts, mich zum Narren zu machen!	Entonces no hay nada para hacer un tonto de mí!	Então não há nada para fazer um tolo de mim!	再没有什么让我的傻瓜！	そして、私の愚か者を作るためには何もありません！	तो फिर वहाँ मुझे बेवकूफ बनाने के लिए कुछ भी नहीं है!	ثم هناك شيء لجعل معتوه من لي!
